
Thread 1 (process 10456):
#0  __lll_lock_wait_private () at ../nptl/sysdeps/unix/sysv/linux/x86_64/lowlevellock.S:95
No locals.
#1  0x00007f8b8233d53a in _L_lock_10520 () from /lib/x86_64-linux-gnu/libc.so.6
No symbol table info available.
#2  0x00007f8b8233b075 in __GI___libc_malloc (bytes=140237164914208) at malloc.c:2887
        ar_ptr = 0x7f8b82662620 <main_arena>
        victim = <optimized out>
        hook = <optimized out>
        __func__ = "__libc_malloc"
#3  0x00007f8b822f1748 in _nl_make_l10nflist (l10nfile_list=l10nfile_list@entry=0x7f8b82663bb8 <_nl_loaded_domains>, dirlist=dirlist@entry=0x1d91c20 "/home/vinc17/share/locale", dirlist_len=26, mask=mask@entry=0, language=language@entry=0x7ffcce361cc0 "fr_FR", territory=territory@entry=0x0, codeset=codeset@entry=0x0, normalized_codeset=normalized_codeset@entry=0x0, modifier=modifier@entry=0x0, filename=filename@entry=0x7ffcce361ce0 "LC_MESSAGES/mutt.mo", do_allocate=do_allocate@entry=0) at ../intl/l10nflist.c:185
        abs_filename = <optimized out>
        last = 0x0
        retval = <optimized out>
        cp = <optimized out>
        entries = <optimized out>
        cnt = <optimized out>
#4  0x00007f8b822ef597 in _nl_find_domain (dirname=dirname@entry=0x1d91c20 "/home/vinc17/share/locale", locale=locale@entry=0x7ffcce361cc0 "fr_FR", domainname=domainname@entry=0x7ffcce361ce0 "LC_MESSAGES/mutt.mo", domainbinding=domainbinding@entry=0x1d91bf0) at finddomain.c:86
        retval = <optimized out>
        language = 0x0
        modifier = 0x1 <error: Cannot access memory at address 0x1>
        territory = 0x7f8b83e5d5f0 ""
        codeset = 0x1d98880 "%d"
        normalized_codeset = 0x7f0083e3a280 <error: Cannot access memory at address 0x7f0083e3a280>
        alias_value = <optimized out>
        mask = <optimized out>
        lock = {__data = {__lock = 0, __nr_readers = 0, __readers_wakeup = 0, __writer_wakeup = 0, __nr_readers_queued = 0, __nr_writers_queued = 0, __writer = 0, __shared = 0, __pad1 = 0, __pad2 = 0, __flags = 0}, __size = '\000' <repeats 55 times>, __align = 0}
#5  0x00007f8b822eee5e in __dcigettext (domainname=0x1d91c50 "mutt", domainname@entry=0x0, msgid1=msgid1@entry=0x4ae148 "Caught signal %d...  Exiting.\n", msgid2=msgid2@entry=0x0, plural=plural@entry=0, n=n@entry=0, category=category@entry=5) at dcigettext.c:626
        domain = <optimized out>
        binding = <optimized out>
        categoryname = <optimized out>
        categoryvalue = 0x1d8fe75 ""
        dirname = 0x1d91c20 "/home/vinc17/share/locale"
        xdomainname = 0x7ffcce361ce0 "LC_MESSAGES/mutt.mo"
        single_locale = 0x7ffcce361cc0 "fr_FR"
        retval = <optimized out>
        retlen = 31038288
        saved_errno = 84
        search = {domainname = 0x1d91c50 "mutt", category = 5, localename = 0x7ffcce361d10 "fr_FR", counter = 437457152, domain = 0x0, translation = 0x7f8b837f4cb7 <_nc_putp_flush+23> "\213D$\fH\203\304\030\303ATL\213%O\202!", translation_length = 10000, msgid = {appended = 0x7ffcce361de8 "H\341J", ptr = 0x4ae148 "Caught signal %d...  Exiting.\n"}}
        foundp = 0x0
        localename = 0x7ffcce361d10 "fr_FR"
        domainname_len = 4
        tree_lock = {__data = {__lock = 0, __nr_readers = 0, __readers_wakeup = 0, __writer_wakeup = 0, __nr_readers_queued = 0, __nr_writers_queued = 0, __writer = 0, __shared = 0, __pad1 = 0, __pad2 = 0, __flags = 0}, __size = '\000' <repeats 55 times>, __align = 0}
#6  0x00007f8b822edc3f in __GI___dcgettext (domainname=domainname@entry=0x0, msgid=msgid@entry=0x4ae148 "Caught signal %d...  Exiting.\n", category=category@entry=5) at dcgettext.c:52
No locals.
#7  0x0000000000466f93 in exit_handler (sig=3) at signal.c:51
No locals.
#8  <signal handler called>
No locals.
#9  0x00007f8b823391b9 in _int_malloc (av=av@entry=0x7f8b82662620 <main_arena>, bytes=bytes@entry=40) at malloc.c:3476
        p = <optimized out>
        iters = 0
        nb = 48
        idx = <optimized out>
        bin = <optimized out>
        victim = <optimized out>
        size = 416
        victim_index = <optimized out>
        remainder = 0x89d6c20
        remainder_size = 368
        block = <optimized out>
        bit = <optimized out>
        map = <optimized out>
        fwd = <optimized out>
        bck = <optimized out>
        errstr = 0x0
        __func__ = "_int_malloc"
#10 0x00007f8b8233ba3c in __libc_calloc (n=<optimized out>, elem_size=<optimized out>) at malloc.c:3219
        av = 0x7f8b82662620 <main_arena>
        oldtop = 0x89d7ff0
        p = <optimized out>
        bytes = 40
        sz = 40
        csz = <optimized out>
        oldtopsize = 135184
        mem = <optimized out>
        clearsize = <optimized out>
        nclears = <optimized out>
        d = <optimized out>
        hook = <optimized out>
        __func__ = "__libc_calloc"
#11 0x000000000046c490 in safe_calloc (nmemb=nmemb@entry=1, size=size@entry=40) at lib.c:136
        p = <optimized out>
#12 0x00000000004582da in add_addrspec (top=top@entry=0x7ffcce362508, last=last@entry=0x7ffcce362530, phrase=phrase@entry=0x7ffcce362940 "mpfr@loria.fr", comment=comment@entry=0x7ffcce362540 "", commentlen=commentlen@entry=0x7ffcce362520, commentmax=1023) at rfc822.c:358
        cur = 0x457db4 <next_token+132>
#13 0x0000000000458999 in rfc822_parse_adrlist (top=0x0, s=0x89d7111 "", s@entry=0x89d7104 "mpfr@loria.fr") at rfc822.c:544
        ws_pending = 0
        ps = <optimized out>
        comment = '\000' <repeats 24 times>, "\313\032.\202\213\177\000\000TRANSLIT", '\000' <repeats 16 times>, "-\032.\202\213\177\000\000UTF-8//", '\000' <repeats 17 times>, "\307\025.\202\213\177\000\000\000\000\000\000\000\000\000\000\230&6\316\374\177\000\000\002\000\000\000\000\000\000\000\340\037\000\000\000\000\000\000hp\235\b\000\000\000\000\352p\235\b", '\000' <repeats 12 times>, "(\200\235\b\000\000\000\000\004", '\000' <repeats 15 times>, "\310'6\316\374\177\000\000\020p\235\b\000\000\000\000\240p\235\b\000\000\000\000"...
        phrase = "mpfr@loria.fr\000ier", '\000' <repeats 31 times>, "\005\000\000\000\000\000\000\000\377\377\377\377\377\377\377\377\000\000\000\000\000\000\000\000@\000\000\000\000\000\000\000\240-6\316\374\177\000\000]\031J\000\000\000\000\000\b\000\000\000\000\000\000\000\377\377\377\377\000\000\000\000\260-6\316\374\177\000\000\037e1\202\213\177\000\000\061\065", '\000' <repeats 254 times>...
        phraselen = 13
        commentlen = 0
        cur = 0x89d6ba0
        last = 0x0
#14 0x000000000044c72c in mutt_parse_rfc822_line (e=e@entry=0x89d6990, hdr=hdr@entry=0x2774490, line=0x89d7100 "Cc", p=0x89d7104 "mpfr@loria.fr", user_hdrs=user_hdrs@entry=0, weed=weed@entry=0, do_2047=1, lastp=0x7ffcce3631e0) at parse.c:1014
        matched = 0
        last = 0x0
#15 0x000000000044ccd2 in mutt_read_rfc822_header (f=0x89d4c50, hdr=hdr@entry=0x2774490, user_hdrs=user_hdrs@entry=0, weed=weed@entry=0) at parse.c:1425
        e = 0x89d6990
        last = 0x0
        line = 0x89d7100 "Cc"
        p = <optimized out>
        loc = 1353
        linelen = 1024
        buf = "\000\000\000\000\000\000\000\000;\000\000\000;\000\000\000O\000\000\000\000\000\000\000P\213\336\001\000\000\000\000P\207\331\001\000\000\000\000\000\241\026\071\237ҤZ\000\000\000\000\000\000\000\000P\213\336\001\000\000\000\000\320ܠ\203\213\177\000\000\377\377\377\377\000\000\000\000\071\000\000\000\000\000\000\000\240\071\066\316\374\177\000\000p\275\302\003\000\000\000\000\006I\242\203\213\177\000\000/\000\000\000\000\000\000\000\034\000\000\000\000\000\000\000/\000\000\000\000\000\000\000\067\323A\000\000\000\000\000\034\000\000\000\000\000\000\000\060\000\000\000\060\000\000\000\220\071\066\316\374\177\000\000\260\070\066\316\374\177\000\000Lecture de /home/vinc17/Ma"...
#16 0x000000000043dec6 in maildir_parse_message (_h=0x2774490, is_old=1, fname=0x7ffcce363b10 "/home/vinc17/Mail/oldarc/cur/1077118186.29905_521.greux:2,S", magic=4) at mh.c:707
        f = 0x89d4c50
        h = 0x2774490
        st = {st_dev = 64513, st_ino = 20241896, st_nlink = 1, st_mode = 33188, st_uid = 1000, st_gid = 1000, __pad0 = 0, st_rdev = 0, st_size = 1789, st_blksize = 4096, st_blocks = 8, st_atim = {tv_sec = 1447600839, tv_nsec = 998175195}, st_mtim = {tv_sec = 1067828059, tv_nsec = 0}, st_ctim = {tv_sec = 1436348485, tv_nsec = 600051656}, __glibc_reserved = {0, 0, 0}}
#17 maildir_delayed_parsing (ctx=ctx@entry=0x202c400, md=md@entry=0x7ffcce363c60, progress=progress@entry=0x7ffcce363d10) at mh.c:1131
        p = 0x2774550
        last = <optimized out>
        fn = "/home/vinc17/Mail/oldarc/cur/1077118186.29905_521.greux:2,S\000\062,RS", '\000' <repeats 16 times>, "\060\000\000\000\000\000\000\000\360I\002\000\000\000\000\000\360I\002\000\000\000\000\000\372\251\060\202\213\177\000\000P<6\316\374\177\000\000\220;6\316\374\177\000\000\000\000\000\000\005\000\000\000P\034\331\001\000\000\000\000\310;6\316\374\177\000\000P\236\002\002", '\000' <repeats 12 times>, "\020\000\000\000\000\000\000\000\270;f\202\213\177\000\000 &f\202\213\177\000\000P\034\331\001\000\000\000\000"...
        count = 54824
        sort = 1
#18 0x000000000043f26b in mh_read_dir (ctx=ctx@entry=0x202c400, subdir=subdir@entry=0x49ae7a "cur") at mh.c:1208
        md = 0x2448cf0
        mhs = {max = 0, flags = 0x0}
        last = 0x428be80
        count = 150000
        msgbuf = "Lecture de /home/vinc17/Mail/oldarc...\000\000\001\000\000\000\000\000\000\000\220\001\345\001\000\000\000\000s\353.\202\213\177\000\000\004\000\000\000\000\000\000\000\004", '\000' <repeats 15 times>, "!\303A\000\000\000\000\000u\376\330\001\000\000\000\000\020\000\000\000\060\000\000\000\000?6\316\374\177\000\000@>6\316\374\177\000\000\000\000\000\000\005\000\000\000P\236\002\002", '\000' <repeats 20 times>, ")\fニ\177\000\000\020\000\000\000\000\000\000\000\001\000\000\000\000\000\000\000\021\000\000\000\000\000\000\000P\034\331\001\000\000\000\000\005\000\000\000"...
        progress = {inc = 10, flags = 2, msg = 0x7ffcce363dc0 "Lecture de /home/vinc17/Mail/oldarc...", pos = 54504, size = 150000, timestamp = 232804898, sizestr = "150000", '\000' <repeats 121 times>}
#19 0x000000000043f490 in maildir_read_dir (ctx=0x202c400) at mh.c:1232
No locals.
#20 0x0000000000441f5b in mx_open_mailbox (path=path@entry=0x7ffcce364040 "/home/vinc17/Mail/oldarc", flags=4, pctx=pctx@entry=0x0) at mx.c:651
        ctx = 0x202c400
        rc = <optimized out>
#21 0x00000000004080d3 in main (argc=1, argv=<optimized out>) at main.c:1058
        folder = "/home/vinc17/Mail/oldarc", '\000' <repeats 231 times>
        subject = <optimized out>
        includeFile = <optimized out>
        draftFile = <optimized out>
        newMagic = <optimized out>
        msg = 0x0
        attach = 0x0
        commands = 0x0
        queries = <optimized out>
        alias_queries = <optimized out>
        sendflags = 0
        flags = 0
        version = <optimized out>
        i = <optimized out>
        explicit_folder = <optimized out>
        dump_variables = <optimized out>
        double_dash = <optimized out>
        nargc = <optimized out>
