Ticket:  3452
Status:  new
Summary: Make "Re: " prepending to subject when replying optional

Reporter: pnl
Owner:    mutt-dev

Opened:       2010-09-17 14:12:21 UTC
Last Updated: 2010-09-23 15:10:19 UTC

Priority:  trivial
Component: mutt
Keywords:  

--------------------------------------------------------------------------------
Description:
Quoting RFC2822:

  The "Subject:" field is the most common and contains a short string
  identifying the topic of the message.  When used in a reply, the field
  body MAY start with the string "Re: " (from the Latin "res", in the
  matter of) followed by the contents of the "Subject:" field body of the
  original message.  If this is done, only one instance of the literal
  string "Re: " ought to be used since use of other strings or more than
  one instance can lead to undesirable consequences.

Attached patch adds a boolean configuration option "reply_prefix", defaulting to on.  If this flag is turned off, original subject will be used, unaltered.

--------------------------------------------------------------------------------
2010-09-17 14:13:14 UTC pnl
* Added attachment mutt-replyprefix.patch
* Added comment:
reply_prefix.patch

--------------------------------------------------------------------------------
2010-09-17 18:05:48 UTC code@pizzashack.org
* Added comment:
{{{
On Fri, Sep 17, 2010 at 02:12:21PM -0000, Mutt wrote:

My vote would be to close this.  The entire world expects replies to
prepend "Re: " (or, in certain European countries which apparently are
predisposed against Latin, a language-specific version of that) to the
subject line.  This behavior should not be optional, IMO, despite the
fact that it is not required by the RFC.  It's not the end of the
world if it's not there; but when generating mail, Mutt should
generally do what people expect, unless there's a very good reason for
it not to.  
}}}

--------------------------------------------------------------------------------
2010-09-18 14:39:12 UTC code@pizzashack.org
* Added comment:
{{{
Naturally it should be noted that one can edit the header after Mutt
generates it, if one really doesn't want the subject line of their
replies to be prefixed with "Re: " for some reason.  This is fine...
but it should be expensive to be anti-social.
}}}

[attachment:"untitled-part.pgp"]

--------------------------------------------------------------------------------
2010-09-18 14:39:13 UTC code@pizzashack.org
* Added comment:
{{{
Naturally it should be noted that one can edit the header after Mutt
generates it, if one really doesn't want the subject line of their
replies to be prefixed with "Re: " for some reason.  This is fine...
but it should be expensive to be anti-social.
}}}

[attachment:"untitled-part.pgp"]

--------------------------------------------------------------------------------
2010-09-18 14:45:20 UTC code@pizzashack.org
* Added comment:
{{{
Naturally it should be noted that one can edit the header after Mutt
generates it, if one really doesn't want the subject line of their
replies to be prefixed with "Re: " for some reason.  This is fine...
but it should be expensive to be anti-social.
}}}

[attachment:"untitled-part.pgp"]

--------------------------------------------------------------------------------
2010-09-18 14:55:19 UTC code@pizzashack.org
* Added comment:
{{{
Naturally it should be noted that one can edit the header after Mutt
generates it, if one really doesn't want the subject line of their
replies to be prefixed with "Re: " for some reason.  This is fine...
but it should be expensive to be anti-social.
}}}

[attachment:"untitled-part.pgp"]

--------------------------------------------------------------------------------
2010-09-18 15:15:20 UTC code@pizzashack.org
* Added comment:
{{{
Naturally it should be noted that one can edit the header after Mutt
generates it, if one really doesn't want the subject line of their
replies to be prefixed with "Re: " for some reason.  This is fine...
but it should be expensive to be anti-social.
}}}

[attachment:"untitled-part.pgp"]

--------------------------------------------------------------------------------
2010-09-18 15:55:20 UTC code@pizzashack.org
* Added comment:
{{{
Naturally it should be noted that one can edit the header after Mutt
generates it, if one really doesn't want the subject line of their
replies to be prefixed with "Re: " for some reason.  This is fine...
but it should be expensive to be anti-social.
}}}

[attachment:"untitled-part.pgp"]

--------------------------------------------------------------------------------
2010-09-18 17:05:20 UTC code@pizzashack.org
* Added comment:
{{{
Naturally it should be noted that one can edit the header after Mutt
generates it, if one really doesn't want the subject line of their
replies to be prefixed with "Re: " for some reason.  This is fine...
but it should be expensive to be anti-social.
}}}

[attachment:"untitled-part.pgp"]

--------------------------------------------------------------------------------
2010-09-18 18:15:20 UTC code@pizzashack.org
* Added comment:
{{{
Naturally it should be noted that one can edit the header after Mutt
generates it, if one really doesn't want the subject line of their
replies to be prefixed with "Re: " for some reason.  This is fine...
but it should be expensive to be anti-social.
}}}

[attachment:"untitled-part.pgp"]

--------------------------------------------------------------------------------
2010-09-18 19:25:20 UTC code@pizzashack.org
* Added comment:
{{{
Naturally it should be noted that one can edit the header after Mutt
generates it, if one really doesn't want the subject line of their
replies to be prefixed with "Re: " for some reason.  This is fine...
but it should be expensive to be anti-social.
}}}

[attachment:"untitled-part.pgp"]

--------------------------------------------------------------------------------
2010-09-18 20:35:19 UTC code@pizzashack.org
* Added comment:
{{{
Naturally it should be noted that one can edit the header after Mutt
generates it, if one really doesn't want the subject line of their
replies to be prefixed with "Re: " for some reason.  This is fine...
but it should be expensive to be anti-social.
}}}

[attachment:"untitled-part.pgp"]

--------------------------------------------------------------------------------
2010-09-18 21:45:24 UTC code@pizzashack.org
* Added comment:
{{{
Naturally it should be noted that one can edit the header after Mutt
generates it, if one really doesn't want the subject line of their
replies to be prefixed with "Re: " for some reason.  This is fine...
but it should be expensive to be anti-social.
}}}

[attachment:"untitled-part.pgp"]

--------------------------------------------------------------------------------
2010-09-18 22:55:21 UTC code@pizzashack.org
* Added comment:
{{{
Naturally it should be noted that one can edit the header after Mutt
generates it, if one really doesn't want the subject line of their
replies to be prefixed with "Re: " for some reason.  This is fine...
but it should be expensive to be anti-social.
}}}

[attachment:"untitled-part.pgp"]

--------------------------------------------------------------------------------
2010-09-19 00:05:20 UTC code@pizzashack.org
* Added comment:
{{{
Naturally it should be noted that one can edit the header after Mutt
generates it, if one really doesn't want the subject line of their
replies to be prefixed with "Re: " for some reason.  This is fine...
but it should be expensive to be anti-social.
}}}

[attachment:"untitled-part.pgp"]

--------------------------------------------------------------------------------
2010-09-19 01:15:26 UTC code@pizzashack.org
* Added comment:
{{{
Naturally it should be noted that one can edit the header after Mutt
generates it, if one really doesn't want the subject line of their
replies to be prefixed with "Re: " for some reason.  This is fine...
but it should be expensive to be anti-social.
}}}

[attachment:"untitled-part.pgp"]

--------------------------------------------------------------------------------
2010-09-19 02:25:22 UTC code@pizzashack.org
* Added comment:
{{{
Naturally it should be noted that one can edit the header after Mutt
generates it, if one really doesn't want the subject line of their
replies to be prefixed with "Re: " for some reason.  This is fine...
but it should be expensive to be anti-social.
}}}

[attachment:"untitled-part.pgp"]

--------------------------------------------------------------------------------
2010-09-19 02:52:33 UTC code@pizzashack.org
* Added comment:
{{{
Naturally it should be noted that one can edit the header after Mutt
generates it, if one really doesn't want the subject line of their
replies to be prefixed with "Re: " for some reason.  This is fine...
but it should be expensive to be anti-social.
}}}

[attachment:"untitled-part.pgp"]

--------------------------------------------------------------------------------
2010-09-19 04:00:20 UTC code@pizzashack.org
* Added comment:
{{{
Naturally it should be noted that one can edit the header after Mutt
generates it, if one really doesn't want the subject line of their
replies to be prefixed with "Re: " for some reason.  This is fine...
but it should be expensive to be anti-social.
}}}

[attachment:"untitled-part.pgp"]

--------------------------------------------------------------------------------
2010-09-19 05:10:20 UTC code@pizzashack.org
* Added comment:
{{{
Naturally it should be noted that one can edit the header after Mutt
generates it, if one really doesn't want the subject line of their
replies to be prefixed with "Re: " for some reason.  This is fine...
but it should be expensive to be anti-social.
}}}

[attachment:"untitled-part.pgp"]

--------------------------------------------------------------------------------
2010-09-19 06:20:19 UTC code@pizzashack.org
* Added comment:
{{{
Naturally it should be noted that one can edit the header after Mutt
generates it, if one really doesn't want the subject line of their
replies to be prefixed with "Re: " for some reason.  This is fine...
but it should be expensive to be anti-social.
}}}

[attachment:"untitled-part.pgp"]

--------------------------------------------------------------------------------
2010-09-19 07:30:20 UTC code@pizzashack.org
* Added comment:
{{{
Naturally it should be noted that one can edit the header after Mutt
generates it, if one really doesn't want the subject line of their
replies to be prefixed with "Re: " for some reason.  This is fine...
but it should be expensive to be anti-social.
}}}

[attachment:"untitled-part.pgp"]

--------------------------------------------------------------------------------
2010-09-19 08:40:20 UTC code@pizzashack.org
* Added comment:
{{{
Naturally it should be noted that one can edit the header after Mutt
generates it, if one really doesn't want the subject line of their
replies to be prefixed with "Re: " for some reason.  This is fine...
but it should be expensive to be anti-social.
}}}

[attachment:"untitled-part.pgp"]

--------------------------------------------------------------------------------
2010-09-19 09:50:20 UTC code@pizzashack.org
* Added comment:
{{{
Naturally it should be noted that one can edit the header after Mutt
generates it, if one really doesn't want the subject line of their
replies to be prefixed with "Re: " for some reason.  This is fine...
but it should be expensive to be anti-social.
}}}

[attachment:"untitled-part.pgp"]

--------------------------------------------------------------------------------
2010-09-19 11:00:20 UTC code@pizzashack.org
* Added comment:
{{{
Naturally it should be noted that one can edit the header after Mutt
generates it, if one really doesn't want the subject line of their
replies to be prefixed with "Re: " for some reason.  This is fine...
but it should be expensive to be anti-social.
}}}

[attachment:"untitled-part.pgp"]

--------------------------------------------------------------------------------
2010-09-19 12:10:19 UTC code@pizzashack.org
* Added comment:
{{{
Naturally it should be noted that one can edit the header after Mutt
generates it, if one really doesn't want the subject line of their
replies to be prefixed with "Re: " for some reason.  This is fine...
but it should be expensive to be anti-social.
}}}

[attachment:"untitled-part.pgp"]

--------------------------------------------------------------------------------
2010-09-19 13:20:19 UTC code@pizzashack.org
* Added comment:
{{{
Naturally it should be noted that one can edit the header after Mutt
generates it, if one really doesn't want the subject line of their
replies to be prefixed with "Re: " for some reason.  This is fine...
but it should be expensive to be anti-social.
}}}

[attachment:"untitled-part.pgp"]

--------------------------------------------------------------------------------
2010-09-19 14:30:20 UTC code@pizzashack.org
* Added comment:
{{{
Naturally it should be noted that one can edit the header after Mutt
generates it, if one really doesn't want the subject line of their
replies to be prefixed with "Re: " for some reason.  This is fine...
but it should be expensive to be anti-social.
}}}

[attachment:"untitled-part.pgp"]

--------------------------------------------------------------------------------
2010-09-19 15:05:52 UTC code@pizzashack.org
* Added comment:
{{{
Naturally it should be noted that one can edit the header after Mutt
generates it, if one really doesn't want the subject line of their
replies to be prefixed with "Re: " for some reason.  This is fine...
but it should be expensive to be anti-social.
}}}

[attachment:"untitled-part.pgp"]

--------------------------------------------------------------------------------
2010-09-19 16:15:19 UTC code@pizzashack.org
* Added comment:
{{{
Naturally it should be noted that one can edit the header after Mutt
generates it, if one really doesn't want the subject line of their
replies to be prefixed with "Re: " for some reason.  This is fine...
but it should be expensive to be anti-social.
}}}

[attachment:"untitled-part.pgp"]

--------------------------------------------------------------------------------
2010-09-19 17:25:19 UTC code@pizzashack.org
* Added comment:
{{{
Naturally it should be noted that one can edit the header after Mutt
generates it, if one really doesn't want the subject line of their
replies to be prefixed with "Re: " for some reason.  This is fine...
but it should be expensive to be anti-social.
}}}

[attachment:"untitled-part.pgp"]

--------------------------------------------------------------------------------
2010-09-19 18:35:20 UTC code@pizzashack.org
* Added comment:
{{{
Naturally it should be noted that one can edit the header after Mutt
generates it, if one really doesn't want the subject line of their
replies to be prefixed with "Re: " for some reason.  This is fine...
but it should be expensive to be anti-social.
}}}

[attachment:"untitled-part.pgp"]

--------------------------------------------------------------------------------
2010-09-19 19:45:20 UTC code@pizzashack.org
* Added comment:
{{{
Naturally it should be noted that one can edit the header after Mutt
generates it, if one really doesn't want the subject line of their
replies to be prefixed with "Re: " for some reason.  This is fine...
but it should be expensive to be anti-social.
}}}

[attachment:"untitled-part.pgp"]

--------------------------------------------------------------------------------
2010-09-19 20:55:20 UTC code@pizzashack.org
* Added comment:
{{{
Naturally it should be noted that one can edit the header after Mutt
generates it, if one really doesn't want the subject line of their
replies to be prefixed with "Re: " for some reason.  This is fine...
but it should be expensive to be anti-social.
}}}

[attachment:"untitled-part.pgp"]

--------------------------------------------------------------------------------
2010-09-19 22:05:19 UTC code@pizzashack.org
* Added comment:
{{{
Naturally it should be noted that one can edit the header after Mutt
generates it, if one really doesn't want the subject line of their
replies to be prefixed with "Re: " for some reason.  This is fine...
but it should be expensive to be anti-social.
}}}

[attachment:"untitled-part.pgp"]

--------------------------------------------------------------------------------
2010-09-19 23:15:19 UTC code@pizzashack.org
* Added comment:
{{{
Naturally it should be noted that one can edit the header after Mutt
generates it, if one really doesn't want the subject line of their
replies to be prefixed with "Re: " for some reason.  This is fine...
but it should be expensive to be anti-social.
}}}

[attachment:"untitled-part.pgp"]

--------------------------------------------------------------------------------
2010-09-20 00:25:20 UTC code@pizzashack.org
* Added comment:
{{{
Naturally it should be noted that one can edit the header after Mutt
generates it, if one really doesn't want the subject line of their
replies to be prefixed with "Re: " for some reason.  This is fine...
but it should be expensive to be anti-social.
}}}

[attachment:"untitled-part.pgp"]

--------------------------------------------------------------------------------
2010-09-20 01:35:20 UTC code@pizzashack.org
* Added comment:
{{{
Naturally it should be noted that one can edit the header after Mutt
generates it, if one really doesn't want the subject line of their
replies to be prefixed with "Re: " for some reason.  This is fine...
but it should be expensive to be anti-social.
}}}

[attachment:"untitled-part.pgp"]

--------------------------------------------------------------------------------
2010-09-20 02:45:19 UTC code@pizzashack.org
* Added comment:
{{{
Naturally it should be noted that one can edit the header after Mutt
generates it, if one really doesn't want the subject line of their
replies to be prefixed with "Re: " for some reason.  This is fine...
but it should be expensive to be anti-social.
}}}

[attachment:"untitled-part.pgp"]

--------------------------------------------------------------------------------
2010-09-20 03:19:13 UTC code@pizzashack.org
* Added comment:
{{{
Naturally it should be noted that one can edit the header after Mutt
generates it, if one really doesn't want the subject line of their
replies to be prefixed with "Re: " for some reason.  This is fine...
but it should be expensive to be anti-social.
}}}

[attachment:"untitled-part.pgp"]

--------------------------------------------------------------------------------
2010-09-20 04:30:20 UTC code@pizzashack.org
* Added comment:
{{{
Naturally it should be noted that one can edit the header after Mutt
generates it, if one really doesn't want the subject line of their
replies to be prefixed with "Re: " for some reason.  This is fine...
but it should be expensive to be anti-social.
}}}

[attachment:"untitled-part.pgp"]

--------------------------------------------------------------------------------
2010-09-20 05:40:20 UTC code@pizzashack.org
* Added comment:
{{{
Naturally it should be noted that one can edit the header after Mutt
generates it, if one really doesn't want the subject line of their
replies to be prefixed with "Re: " for some reason.  This is fine...
but it should be expensive to be anti-social.
}}}

[attachment:"untitled-part.pgp"]

--------------------------------------------------------------------------------
2010-09-20 06:50:20 UTC code@pizzashack.org
* Added comment:
{{{
Naturally it should be noted that one can edit the header after Mutt
generates it, if one really doesn't want the subject line of their
replies to be prefixed with "Re: " for some reason.  This is fine...
but it should be expensive to be anti-social.
}}}

[attachment:"untitled-part.pgp"]

--------------------------------------------------------------------------------
2010-09-20 08:00:20 UTC code@pizzashack.org
* Added comment:
{{{
Naturally it should be noted that one can edit the header after Mutt
generates it, if one really doesn't want the subject line of their
replies to be prefixed with "Re: " for some reason.  This is fine...
but it should be expensive to be anti-social.
}}}

[attachment:"untitled-part.pgp"]

--------------------------------------------------------------------------------
2010-09-20 09:10:20 UTC code@pizzashack.org
* Added comment:
{{{
Naturally it should be noted that one can edit the header after Mutt
generates it, if one really doesn't want the subject line of their
replies to be prefixed with "Re: " for some reason.  This is fine...
but it should be expensive to be anti-social.
}}}

[attachment:"untitled-part.pgp"]

--------------------------------------------------------------------------------
2010-09-20 10:20:20 UTC code@pizzashack.org
* Added comment:
{{{
Naturally it should be noted that one can edit the header after Mutt
generates it, if one really doesn't want the subject line of their
replies to be prefixed with "Re: " for some reason.  This is fine...
but it should be expensive to be anti-social.
}}}

[attachment:"untitled-part.pgp"]

--------------------------------------------------------------------------------
2010-09-20 11:30:19 UTC code@pizzashack.org
* Added comment:
{{{
Naturally it should be noted that one can edit the header after Mutt
generates it, if one really doesn't want the subject line of their
replies to be prefixed with "Re: " for some reason.  This is fine...
but it should be expensive to be anti-social.
}}}

[attachment:"untitled-part.pgp"]

--------------------------------------------------------------------------------
2010-09-20 12:40:20 UTC code@pizzashack.org
* Added comment:
{{{
Naturally it should be noted that one can edit the header after Mutt
generates it, if one really doesn't want the subject line of their
replies to be prefixed with "Re: " for some reason.  This is fine...
but it should be expensive to be anti-social.
}}}

[attachment:"untitled-part.pgp"]

--------------------------------------------------------------------------------
2010-09-20 13:50:20 UTC code@pizzashack.org
* Added comment:
{{{
Naturally it should be noted that one can edit the header after Mutt
generates it, if one really doesn't want the subject line of their
replies to be prefixed with "Re: " for some reason.  This is fine...
but it should be expensive to be anti-social.
}}}

[attachment:"untitled-part.pgp"]

--------------------------------------------------------------------------------
2010-09-20 15:00:19 UTC code@pizzashack.org
* Added comment:
{{{
Naturally it should be noted that one can edit the header after Mutt
generates it, if one really doesn't want the subject line of their
replies to be prefixed with "Re: " for some reason.  This is fine...
but it should be expensive to be anti-social.
}}}

[attachment:"untitled-part.pgp"]

--------------------------------------------------------------------------------
2010-09-20 15:32:32 UTC code@pizzashack.org
* Added comment:
{{{
Naturally it should be noted that one can edit the header after Mutt
generates it, if one really doesn't want the subject line of their
replies to be prefixed with "Re: " for some reason.  This is fine...
but it should be expensive to be anti-social.
}}}

[attachment:"untitled-part.pgp"]

--------------------------------------------------------------------------------
2010-09-20 16:40:19 UTC code@pizzashack.org
* Added comment:
{{{
Naturally it should be noted that one can edit the header after Mutt
generates it, if one really doesn't want the subject line of their
replies to be prefixed with "Re: " for some reason.  This is fine...
but it should be expensive to be anti-social.
}}}

[attachment:"untitled-part.pgp"]

--------------------------------------------------------------------------------
2010-09-20 17:50:20 UTC code@pizzashack.org
* Added comment:
{{{
Naturally it should be noted that one can edit the header after Mutt
generates it, if one really doesn't want the subject line of their
replies to be prefixed with "Re: " for some reason.  This is fine...
but it should be expensive to be anti-social.
}}}

[attachment:"untitled-part.pgp"]

--------------------------------------------------------------------------------
2010-09-20 19:00:20 UTC code@pizzashack.org
* Added comment:
{{{
Naturally it should be noted that one can edit the header after Mutt
generates it, if one really doesn't want the subject line of their
replies to be prefixed with "Re: " for some reason.  This is fine...
but it should be expensive to be anti-social.
}}}

[attachment:"untitled-part.pgp"]

--------------------------------------------------------------------------------
2010-09-20 20:10:19 UTC code@pizzashack.org
* Added comment:
{{{
Naturally it should be noted that one can edit the header after Mutt
generates it, if one really doesn't want the subject line of their
replies to be prefixed with "Re: " for some reason.  This is fine...
but it should be expensive to be anti-social.
}}}

[attachment:"untitled-part.pgp"]

--------------------------------------------------------------------------------
2010-09-20 21:20:19 UTC code@pizzashack.org
* Added comment:
{{{
Naturally it should be noted that one can edit the header after Mutt
generates it, if one really doesn't want the subject line of their
replies to be prefixed with "Re: " for some reason.  This is fine...
but it should be expensive to be anti-social.
}}}

[attachment:"untitled-part.pgp"]

--------------------------------------------------------------------------------
2010-09-20 22:30:19 UTC code@pizzashack.org
* Added comment:
{{{
Naturally it should be noted that one can edit the header after Mutt
generates it, if one really doesn't want the subject line of their
replies to be prefixed with "Re: " for some reason.  This is fine...
but it should be expensive to be anti-social.
}}}

[attachment:"untitled-part.pgp"]

--------------------------------------------------------------------------------
2010-09-20 23:40:19 UTC code@pizzashack.org
* Added comment:
{{{
Naturally it should be noted that one can edit the header after Mutt
generates it, if one really doesn't want the subject line of their
replies to be prefixed with "Re: " for some reason.  This is fine...
but it should be expensive to be anti-social.
}}}

[attachment:"untitled-part.pgp"]

--------------------------------------------------------------------------------
2010-09-21 00:50:20 UTC code@pizzashack.org
* Added comment:
{{{
Naturally it should be noted that one can edit the header after Mutt
generates it, if one really doesn't want the subject line of their
replies to be prefixed with "Re: " for some reason.  This is fine...
but it should be expensive to be anti-social.
}}}

[attachment:"untitled-part.pgp"]

--------------------------------------------------------------------------------
2010-09-21 02:00:20 UTC code@pizzashack.org
* Added comment:
{{{
Naturally it should be noted that one can edit the header after Mutt
generates it, if one really doesn't want the subject line of their
replies to be prefixed with "Re: " for some reason.  This is fine...
but it should be expensive to be anti-social.
}}}

[attachment:"untitled-part.pgp"]

--------------------------------------------------------------------------------
2010-09-21 03:10:20 UTC code@pizzashack.org
* Added comment:
{{{
Naturally it should be noted that one can edit the header after Mutt
generates it, if one really doesn't want the subject line of their
replies to be prefixed with "Re: " for some reason.  This is fine...
but it should be expensive to be anti-social.
}}}

[attachment:"untitled-part.pgp"]

--------------------------------------------------------------------------------
2010-09-21 03:45:53 UTC code@pizzashack.org
* Added comment:
{{{
Naturally it should be noted that one can edit the header after Mutt
generates it, if one really doesn't want the subject line of their
replies to be prefixed with "Re: " for some reason.  This is fine...
but it should be expensive to be anti-social.
}}}

[attachment:"untitled-part.pgp"]

--------------------------------------------------------------------------------
2010-09-21 04:55:19 UTC code@pizzashack.org
* Added comment:
{{{
Naturally it should be noted that one can edit the header after Mutt
generates it, if one really doesn't want the subject line of their
replies to be prefixed with "Re: " for some reason.  This is fine...
but it should be expensive to be anti-social.
}}}

[attachment:"untitled-part.pgp"]

--------------------------------------------------------------------------------
2010-09-21 06:05:19 UTC code@pizzashack.org
* Added comment:
{{{
Naturally it should be noted that one can edit the header after Mutt
generates it, if one really doesn't want the subject line of their
replies to be prefixed with "Re: " for some reason.  This is fine...
but it should be expensive to be anti-social.
}}}

[attachment:"untitled-part.pgp"]

--------------------------------------------------------------------------------
2010-09-21 07:15:19 UTC code@pizzashack.org
* Added comment:
{{{
Naturally it should be noted that one can edit the header after Mutt
generates it, if one really doesn't want the subject line of their
replies to be prefixed with "Re: " for some reason.  This is fine...
but it should be expensive to be anti-social.
}}}

[attachment:"untitled-part.pgp"]

--------------------------------------------------------------------------------
2010-09-21 08:25:19 UTC code@pizzashack.org
* Added comment:
{{{
Naturally it should be noted that one can edit the header after Mutt
generates it, if one really doesn't want the subject line of their
replies to be prefixed with "Re: " for some reason.  This is fine...
but it should be expensive to be anti-social.
}}}

[attachment:"untitled-part.pgp"]

--------------------------------------------------------------------------------
2010-09-21 09:35:19 UTC code@pizzashack.org
* Added comment:
{{{
Naturally it should be noted that one can edit the header after Mutt
generates it, if one really doesn't want the subject line of their
replies to be prefixed with "Re: " for some reason.  This is fine...
but it should be expensive to be anti-social.
}}}

[attachment:"untitled-part.pgp"]

--------------------------------------------------------------------------------
2010-09-21 10:45:19 UTC code@pizzashack.org
* Added comment:
{{{
Naturally it should be noted that one can edit the header after Mutt
generates it, if one really doesn't want the subject line of their
replies to be prefixed with "Re: " for some reason.  This is fine...
but it should be expensive to be anti-social.
}}}

[attachment:"untitled-part.pgp"]

--------------------------------------------------------------------------------
2010-09-21 11:55:20 UTC code@pizzashack.org
* Added comment:
{{{
Naturally it should be noted that one can edit the header after Mutt
generates it, if one really doesn't want the subject line of their
replies to be prefixed with "Re: " for some reason.  This is fine...
but it should be expensive to be anti-social.
}}}

[attachment:"untitled-part.pgp"]

--------------------------------------------------------------------------------
2010-09-21 13:05:19 UTC code@pizzashack.org
* Added comment:
{{{
Naturally it should be noted that one can edit the header after Mutt
generates it, if one really doesn't want the subject line of their
replies to be prefixed with "Re: " for some reason.  This is fine...
but it should be expensive to be anti-social.
}}}

[attachment:"untitled-part.pgp"]

--------------------------------------------------------------------------------
2010-09-21 14:15:20 UTC code@pizzashack.org
* Added comment:
{{{
Naturally it should be noted that one can edit the header after Mutt
generates it, if one really doesn't want the subject line of their
replies to be prefixed with "Re: " for some reason.  This is fine...
but it should be expensive to be anti-social.
}}}

[attachment:"untitled-part.pgp"]

--------------------------------------------------------------------------------
2010-09-21 15:25:19 UTC code@pizzashack.org
* Added comment:
{{{
Naturally it should be noted that one can edit the header after Mutt
generates it, if one really doesn't want the subject line of their
replies to be prefixed with "Re: " for some reason.  This is fine...
but it should be expensive to be anti-social.
}}}

[attachment:"untitled-part.pgp"]

--------------------------------------------------------------------------------
2010-09-21 15:59:12 UTC code@pizzashack.org
* Added comment:
{{{
Naturally it should be noted that one can edit the header after Mutt
generates it, if one really doesn't want the subject line of their
replies to be prefixed with "Re: " for some reason.  This is fine...
but it should be expensive to be anti-social.
}}}

[attachment:"untitled-part.pgp"]

--------------------------------------------------------------------------------
2010-09-21 17:10:19 UTC code@pizzashack.org
* Added comment:
{{{
Naturally it should be noted that one can edit the header after Mutt
generates it, if one really doesn't want the subject line of their
replies to be prefixed with "Re: " for some reason.  This is fine...
but it should be expensive to be anti-social.
}}}

[attachment:"untitled-part.pgp"]

--------------------------------------------------------------------------------
2010-09-21 18:20:19 UTC code@pizzashack.org
* Added comment:
{{{
Naturally it should be noted that one can edit the header after Mutt
generates it, if one really doesn't want the subject line of their
replies to be prefixed with "Re: " for some reason.  This is fine...
but it should be expensive to be anti-social.
}}}

[attachment:"untitled-part.pgp"]

--------------------------------------------------------------------------------
2010-09-21 19:30:19 UTC code@pizzashack.org
* Added comment:
{{{
Naturally it should be noted that one can edit the header after Mutt
generates it, if one really doesn't want the subject line of their
replies to be prefixed with "Re: " for some reason.  This is fine...
but it should be expensive to be anti-social.
}}}

[attachment:"untitled-part.pgp"]

--------------------------------------------------------------------------------
2010-09-21 20:40:19 UTC code@pizzashack.org
* Added comment:
{{{
Naturally it should be noted that one can edit the header after Mutt
generates it, if one really doesn't want the subject line of their
replies to be prefixed with "Re: " for some reason.  This is fine...
but it should be expensive to be anti-social.
}}}

[attachment:"untitled-part.pgp"]

--------------------------------------------------------------------------------
2010-09-21 21:50:20 UTC code@pizzashack.org
* Added comment:
{{{
Naturally it should be noted that one can edit the header after Mutt
generates it, if one really doesn't want the subject line of their
replies to be prefixed with "Re: " for some reason.  This is fine...
but it should be expensive to be anti-social.
}}}

[attachment:"untitled-part.pgp"]

--------------------------------------------------------------------------------
2010-09-21 23:00:19 UTC code@pizzashack.org
* Added comment:
{{{
Naturally it should be noted that one can edit the header after Mutt
generates it, if one really doesn't want the subject line of their
replies to be prefixed with "Re: " for some reason.  This is fine...
but it should be expensive to be anti-social.
}}}

[attachment:"untitled-part.pgp"]

--------------------------------------------------------------------------------
2010-09-22 00:10:19 UTC code@pizzashack.org
* Added comment:
{{{
Naturally it should be noted that one can edit the header after Mutt
generates it, if one really doesn't want the subject line of their
replies to be prefixed with "Re: " for some reason.  This is fine...
but it should be expensive to be anti-social.
}}}

[attachment:"untitled-part.pgp"]

--------------------------------------------------------------------------------
2010-09-22 01:20:19 UTC code@pizzashack.org
* Added comment:
{{{
Naturally it should be noted that one can edit the header after Mutt
generates it, if one really doesn't want the subject line of their
replies to be prefixed with "Re: " for some reason.  This is fine...
but it should be expensive to be anti-social.
}}}

[attachment:"untitled-part.pgp"]

--------------------------------------------------------------------------------
2010-09-22 02:30:20 UTC code@pizzashack.org
* Added comment:
{{{
Naturally it should be noted that one can edit the header after Mutt
generates it, if one really doesn't want the subject line of their
replies to be prefixed with "Re: " for some reason.  This is fine...
but it should be expensive to be anti-social.
}}}

[attachment:"untitled-part.pgp"]

--------------------------------------------------------------------------------
2010-09-22 03:40:19 UTC code@pizzashack.org
* Added comment:
{{{
Naturally it should be noted that one can edit the header after Mutt
generates it, if one really doesn't want the subject line of their
replies to be prefixed with "Re: " for some reason.  This is fine...
but it should be expensive to be anti-social.
}}}

[attachment:"untitled-part.pgp"]

--------------------------------------------------------------------------------
2010-09-22 04:12:33 UTC code@pizzashack.org
* Added comment:
{{{
Naturally it should be noted that one can edit the header after Mutt
generates it, if one really doesn't want the subject line of their
replies to be prefixed with "Re: " for some reason.  This is fine...
but it should be expensive to be anti-social.
}}}

[attachment:"untitled-part.pgp"]

--------------------------------------------------------------------------------
2010-09-22 05:20:20 UTC code@pizzashack.org
* Added comment:
{{{
Naturally it should be noted that one can edit the header after Mutt
generates it, if one really doesn't want the subject line of their
replies to be prefixed with "Re: " for some reason.  This is fine...
but it should be expensive to be anti-social.
}}}

[attachment:"untitled-part.pgp"]

--------------------------------------------------------------------------------
2010-09-22 06:30:19 UTC code@pizzashack.org
* Added comment:
{{{
Naturally it should be noted that one can edit the header after Mutt
generates it, if one really doesn't want the subject line of their
replies to be prefixed with "Re: " for some reason.  This is fine...
but it should be expensive to be anti-social.
}}}

[attachment:"untitled-part.pgp"]

--------------------------------------------------------------------------------
2010-09-22 07:40:19 UTC code@pizzashack.org
* Added comment:
{{{
Naturally it should be noted that one can edit the header after Mutt
generates it, if one really doesn't want the subject line of their
replies to be prefixed with "Re: " for some reason.  This is fine...
but it should be expensive to be anti-social.
}}}

[attachment:"untitled-part.pgp"]

--------------------------------------------------------------------------------
2010-09-22 08:50:20 UTC code@pizzashack.org
* Added comment:
{{{
Naturally it should be noted that one can edit the header after Mutt
generates it, if one really doesn't want the subject line of their
replies to be prefixed with "Re: " for some reason.  This is fine...
but it should be expensive to be anti-social.
}}}

[attachment:"untitled-part.pgp"]

--------------------------------------------------------------------------------
2010-09-22 10:00:19 UTC code@pizzashack.org
* Added comment:
{{{
Naturally it should be noted that one can edit the header after Mutt
generates it, if one really doesn't want the subject line of their
replies to be prefixed with "Re: " for some reason.  This is fine...
but it should be expensive to be anti-social.
}}}

[attachment:"untitled-part.pgp"]

--------------------------------------------------------------------------------
2010-09-22 11:10:20 UTC code@pizzashack.org
* Added comment:
{{{
Naturally it should be noted that one can edit the header after Mutt
generates it, if one really doesn't want the subject line of their
replies to be prefixed with "Re: " for some reason.  This is fine...
but it should be expensive to be anti-social.
}}}

[attachment:"untitled-part.pgp"]

--------------------------------------------------------------------------------
2010-09-22 12:20:20 UTC code@pizzashack.org
* Added comment:
{{{
Naturally it should be noted that one can edit the header after Mutt
generates it, if one really doesn't want the subject line of their
replies to be prefixed with "Re: " for some reason.  This is fine...
but it should be expensive to be anti-social.
}}}

[attachment:"untitled-part.pgp"]

--------------------------------------------------------------------------------
2010-09-22 13:30:20 UTC code@pizzashack.org
* Added comment:
{{{
Naturally it should be noted that one can edit the header after Mutt
generates it, if one really doesn't want the subject line of their
replies to be prefixed with "Re: " for some reason.  This is fine...
but it should be expensive to be anti-social.
}}}

[attachment:"untitled-part.pgp"]

--------------------------------------------------------------------------------
2010-09-22 14:40:20 UTC code@pizzashack.org
* Added comment:
{{{
Naturally it should be noted that one can edit the header after Mutt
generates it, if one really doesn't want the subject line of their
replies to be prefixed with "Re: " for some reason.  This is fine...
but it should be expensive to be anti-social.
}}}

[attachment:"untitled-part.pgp"]

--------------------------------------------------------------------------------
2010-09-22 15:50:19 UTC code@pizzashack.org
* Added comment:
{{{
Naturally it should be noted that one can edit the header after Mutt
generates it, if one really doesn't want the subject line of their
replies to be prefixed with "Re: " for some reason.  This is fine...
but it should be expensive to be anti-social.
}}}

[attachment:"untitled-part.pgp"]

--------------------------------------------------------------------------------
2010-09-22 16:25:52 UTC code@pizzashack.org
* Added comment:
{{{
Naturally it should be noted that one can edit the header after Mutt
generates it, if one really doesn't want the subject line of their
replies to be prefixed with "Re: " for some reason.  This is fine...
but it should be expensive to be anti-social.
}}}

[attachment:"untitled-part.pgp"]

--------------------------------------------------------------------------------
2010-09-22 17:35:20 UTC code@pizzashack.org
* Added comment:
{{{
Naturally it should be noted that one can edit the header after Mutt
generates it, if one really doesn't want the subject line of their
replies to be prefixed with "Re: " for some reason.  This is fine...
but it should be expensive to be anti-social.
}}}

[attachment:"untitled-part.pgp"]

--------------------------------------------------------------------------------
2010-09-22 18:45:20 UTC code@pizzashack.org
* Added comment:
{{{
Naturally it should be noted that one can edit the header after Mutt
generates it, if one really doesn't want the subject line of their
replies to be prefixed with "Re: " for some reason.  This is fine...
but it should be expensive to be anti-social.
}}}

[attachment:"untitled-part.pgp"]

--------------------------------------------------------------------------------
2010-09-22 19:55:20 UTC code@pizzashack.org
* Added comment:
{{{
Naturally it should be noted that one can edit the header after Mutt
generates it, if one really doesn't want the subject line of their
replies to be prefixed with "Re: " for some reason.  This is fine...
but it should be expensive to be anti-social.
}}}

[attachment:"untitled-part.pgp"]

--------------------------------------------------------------------------------
2010-09-22 21:05:19 UTC code@pizzashack.org
* Added comment:
{{{
Naturally it should be noted that one can edit the header after Mutt
generates it, if one really doesn't want the subject line of their
replies to be prefixed with "Re: " for some reason.  This is fine...
but it should be expensive to be anti-social.
}}}

[attachment:"untitled-part.pgp"]

--------------------------------------------------------------------------------
2010-09-22 22:15:20 UTC code@pizzashack.org
* Added comment:
{{{
Naturally it should be noted that one can edit the header after Mutt
generates it, if one really doesn't want the subject line of their
replies to be prefixed with "Re: " for some reason.  This is fine...
but it should be expensive to be anti-social.
}}}

[attachment:"untitled-part.pgp"]

--------------------------------------------------------------------------------
2010-09-22 23:25:19 UTC code@pizzashack.org
* Added comment:
{{{
Naturally it should be noted that one can edit the header after Mutt
generates it, if one really doesn't want the subject line of their
replies to be prefixed with "Re: " for some reason.  This is fine...
but it should be expensive to be anti-social.
}}}

[attachment:"untitled-part.pgp"]

--------------------------------------------------------------------------------
2010-09-23 00:35:19 UTC code@pizzashack.org
* Added comment:
{{{
Naturally it should be noted that one can edit the header after Mutt
generates it, if one really doesn't want the subject line of their
replies to be prefixed with "Re: " for some reason.  This is fine...
but it should be expensive to be anti-social.
}}}

[attachment:"untitled-part.pgp"]

--------------------------------------------------------------------------------
2010-09-23 01:45:20 UTC code@pizzashack.org
* Added comment:
{{{
Naturally it should be noted that one can edit the header after Mutt
generates it, if one really doesn't want the subject line of their
replies to be prefixed with "Re: " for some reason.  This is fine...
but it should be expensive to be anti-social.
}}}

[attachment:"untitled-part.pgp"]

--------------------------------------------------------------------------------
2010-09-23 02:55:20 UTC code@pizzashack.org
* Added comment:
{{{
Naturally it should be noted that one can edit the header after Mutt
generates it, if one really doesn't want the subject line of their
replies to be prefixed with "Re: " for some reason.  This is fine...
but it should be expensive to be anti-social.
}}}

[attachment:"untitled-part.pgp"]

--------------------------------------------------------------------------------
2010-09-23 04:05:20 UTC code@pizzashack.org
* Added comment:
{{{
Naturally it should be noted that one can edit the header after Mutt
generates it, if one really doesn't want the subject line of their
replies to be prefixed with "Re: " for some reason.  This is fine...
but it should be expensive to be anti-social.
}}}

[attachment:"untitled-part.pgp"]

--------------------------------------------------------------------------------
2010-09-23 04:39:13 UTC code@pizzashack.org
* Added comment:
{{{
Naturally it should be noted that one can edit the header after Mutt
generates it, if one really doesn't want the subject line of their
replies to be prefixed with "Re: " for some reason.  This is fine...
but it should be expensive to be anti-social.
}}}

[attachment:"untitled-part.pgp"]

--------------------------------------------------------------------------------
2010-09-23 05:50:19 UTC code@pizzashack.org
* Added comment:
{{{
Naturally it should be noted that one can edit the header after Mutt
generates it, if one really doesn't want the subject line of their
replies to be prefixed with "Re: " for some reason.  This is fine...
but it should be expensive to be anti-social.
}}}

[attachment:"untitled-part.pgp"]

--------------------------------------------------------------------------------
2010-09-23 07:00:20 UTC code@pizzashack.org
* Added comment:
{{{
Naturally it should be noted that one can edit the header after Mutt
generates it, if one really doesn't want the subject line of their
replies to be prefixed with "Re: " for some reason.  This is fine...
but it should be expensive to be anti-social.
}}}

[attachment:"untitled-part.pgp"]

--------------------------------------------------------------------------------
2010-09-23 08:10:20 UTC code@pizzashack.org
* Added comment:
{{{
Naturally it should be noted that one can edit the header after Mutt
generates it, if one really doesn't want the subject line of their
replies to be prefixed with "Re: " for some reason.  This is fine...
but it should be expensive to be anti-social.
}}}

[attachment:"untitled-part.pgp"]

--------------------------------------------------------------------------------
2010-09-23 09:20:20 UTC code@pizzashack.org
* Added comment:
{{{
Naturally it should be noted that one can edit the header after Mutt
generates it, if one really doesn't want the subject line of their
replies to be prefixed with "Re: " for some reason.  This is fine...
but it should be expensive to be anti-social.
}}}

[attachment:"untitled-part.pgp"]

--------------------------------------------------------------------------------
2010-09-23 10:30:19 UTC code@pizzashack.org
* Added comment:
{{{
Naturally it should be noted that one can edit the header after Mutt
generates it, if one really doesn't want the subject line of their
replies to be prefixed with "Re: " for some reason.  This is fine...
but it should be expensive to be anti-social.
}}}

[attachment:"untitled-part.pgp"]

--------------------------------------------------------------------------------
2010-09-23 11:40:20 UTC code@pizzashack.org
* Added comment:
{{{
Naturally it should be noted that one can edit the header after Mutt
generates it, if one really doesn't want the subject line of their
replies to be prefixed with "Re: " for some reason.  This is fine...
but it should be expensive to be anti-social.
}}}

[attachment:"untitled-part.pgp"]

--------------------------------------------------------------------------------
2010-09-23 12:50:19 UTC code@pizzashack.org
* Added comment:
{{{
Naturally it should be noted that one can edit the header after Mutt
generates it, if one really doesn't want the subject line of their
replies to be prefixed with "Re: " for some reason.  This is fine...
but it should be expensive to be anti-social.
}}}

[attachment:"untitled-part.pgp"]

--------------------------------------------------------------------------------
2010-09-23 14:00:20 UTC code@pizzashack.org
* Added comment:
{{{
Naturally it should be noted that one can edit the header after Mutt
generates it, if one really doesn't want the subject line of their
replies to be prefixed with "Re: " for some reason.  This is fine...
but it should be expensive to be anti-social.
}}}

[attachment:"untitled-part.pgp"]

--------------------------------------------------------------------------------
2010-09-23 15:10:19 UTC code@pizzashack.org
* Added comment:
{{{
Naturally it should be noted that one can edit the header after Mutt
generates it, if one really doesn't want the subject line of their
replies to be prefixed with "Re: " for some reason.  This is fine...
but it should be expensive to be anti-social.
}}}

[attachment:"untitled-part.pgp"]
