(gdb) run -F ~/.muttrc-vext01
Starting program: /opt/mutt/bin/mutt -F ~/.muttrc-vext01
sh: urlview: not found

Program received signal SIGPIPE, Broken pipe.
0x1c0cab72 in write ()
(gdb) bt
#0  0x1c0cab72 in write ()
#1  0x1c0dd6f8 in ftello (fp=0x3c02f2a0) at /usr/src/lib/libc/stdio/ftell.c:57
#2  0x1c0229a1 in _mutt_copy_message (fpout=0x3c02f2a0, fpin=0x3c02f2f8, 
    hdr=0x89ac4300, body=0x89ac4080, flags=100, chflags=150) at copy.c:574
#3  0x1c022f88 in mutt_copy_message (fpout=0x3c02f2a0, src=0x7c75a680, 
    hdr=0x89ac4300, flags=100, chflags=150) at copy.c:687
#4  0x1c019efb in pipe_msg (h=0x89ac4300, fp=0x3c02f2a0, decode=2, print=0)
    at commands.c:375
#5  0x1c01a002 in _mutt_pipe_message (h=0x89ac4300, cmd=0xcfbf6624 " urlview", 
    decode=2, print=0, split=0, sep=0x7f33c5d0 "\n") at commands.c:417
#6  0x1c01a54e in mutt_pipe_message (h=0x89ac4300) at commands.c:498
#7  0x1c02d28f in mutt_index_menu () at curs_main.c:2008
#8  0x1c04bfa3 in main (argc=1, argv=0xcfbf7c5c) at main.c:1020

