Ticket:  1755
Status:  closed
Summary: Mutt Segfault

Reporter: vishy@dhcp-63-233.cse.ucsc.edu (S V N Vishwanathan)
Owner:    mutt-dev

Opened:       2004-01-12 10:11:55 UTC
Last Updated: 2005-09-15 05:07:09 UTC

Priority:  minor
Component: mutt
Keywords:  IMAP

--------------------------------------------------------------------------------
Description:
{{{
Package: mutt
Version: 1.4i
Severity: normal

-- Please type your report below this line
Accessing a IMAPS folder using SSL. Opening a spam mail (probably .html) segfaults mutt. Mutt installed on Mac osX 10.3 by compiling from the fink archive (current as of 6the Jan 2004). Relevant entry in .mailcap is:

text/html       ; w3m -dump -cols 72 %s ; nametemplate=%s.html; copiousoutput
text/htm        ; w3m -dump -cols 72 %s ; nametemplate=%s.html; copiousoutput
message/htm     ; w3m -dump -cols 72 %s ; nametemplate=%s.html; copiousoutput

From the crash dump the offending line seems to be:

HEADER *h = ctx->hdrs[msgno];

in pattern.c

Relevant crash dump from Panther is:


**********

Host:       Vishys-Computer.local
Date/Time:  2003-12-10 04:20:08 +1100
OS Version: 10.3.1 (Build 7C107)

Command:    mutt (/sw/bin/mutt)
PID:        919
Thread:     0

Exception:  EXC_BAD_ACCESS (0x0001)
Codes:      KERN_PROTECTION_FAILURE (0x0002) at 0x0000002c

Thread 0 Crashed:
 #0   0x0003b0bc in msg_search (pattern.c:150)
 #1   0x0003ccf0 in mutt_pattern_exec (pattern.c:1005)
 #2   0x00017ce0 in mutt_set_header_color (curs_main.c:1999)
 #3   0x00012310 in index_color (curs_main.c:176)
 #4   0x0002c9ec in menu_redraw_index (menu.c:254)
 #5   0x00012ef8 in mutt_index_menu (curs_main.c:541)
 #6   0x00029fc8 in main (main.c:842)
 #7   0x0000270c in _start (crt.c:267)
 #8   0x0000258c in start (start + 48)

PPC Thread State:
  srr0: 0x0003b0bc srr1: 0x0000d030                vrsave: 0x00000000
    cr: 0x24848288  xer: 0x00000004   lr: 0x0003b098  ctr: 0x0003ccd0
    r0: 0x00000000   r1: 0xbfffe8a0   r2: 0x00000000   r3: 0x0110d710
    r4: 0x0000000b   r5: 0xbfffead0   r6: 0x00000100   r7: 0x00000020
    r8: 0x0000002c   r9: 0x00000070  r10: 0x0000018a  r11: 0x44848228
   r12: 0x900011c0  r13: 0x00000000  r14: 0x00000000  r15: 0x00089438
   r16: 0x00000000  r17: 0x00082ae8  r18: 0x00000000  r19: 0x00000001
   r20: 0x00000000  r21: 0x00000000  r22: 0x00082ae8  r23: 0x00087350
   r24: 0x0111f1c0  r25: 0x000873c0  r26: 0x00243780  r27: 0x00000000
   r28: 0x0110d710  r29: 0x0110d710  r30: 0x0111f1a0  r31: 0x0003b098

**********

Host:       Vishys-Computer.local
Date/Time:  2003-12-11 04:25:59 +1100
OS Version: 10.3.1 (Build 7C107)

Command:    mutt (/sw/bin/mutt)
PID:        1309
Thread:     0

Exception:  EXC_BAD_ACCESS (0x0001)
Codes:      KERN_PROTECTION_FAILURE (0x0002) at 0x00000020

Thread 0 Crashed:
 #0   0x0003b0bc in msg_search (pattern.c:150)
 #1   0x0003ccf0 in mutt_pattern_exec (pattern.c:1005)
 #2   0x00017ce0 in mutt_set_header_color (curs_main.c:1999)
 #3   0x00012310 in index_color (curs_main.c:176)
 #4   0x0002c9ec in menu_redraw_index (menu.c:254)
 #5   0x00012ef8 in mutt_index_menu (curs_main.c:541)
 #6   0x00029fc8 in main (main.c:842)
 #7   0x0000270c in _start (crt.c:267)
 #8   0x0000258c in start (start + 48)

PPC Thread State:
  srr0: 0x0003b0bc srr1: 0x0000d030                vrsave: 0x00000000
    cr: 0x24848288  xer: 0x00000004   lr: 0x0003b098  ctr: 0x0003ccd0
    r0: 0x00000000   r1: 0xbfffe8a0   r2: 0x00000000   r3: 0x0110d710
    r4: 0x00000008   r5: 0xbfffead0   r6: 0x00000100   r7: 0x00000020
    r8: 0x00000020   r9: 0x00000070  r10: 0x0000018a  r11: 0x44848228
   r12: 0x900011c0  r13: 0x00000000  r14: 0x00000000  r15: 0x00089438
   r16: 0x00000000  r17: 0x00082ae8  r18: 0x00000000  r19: 0x00000001
   r20: 0x00000000  r21: 0x00000000  r22: 0x00082ae8  r23: 0x00087350
   r24: 0x0111f1c0  r25: 0x000873c0  r26: 0x00243780  r27: 0x00000000
   r28: 0x0110d710  r29: 0x0110d710  r30: 0x0111f1a0  r31: 0x0003b098

**********

Host:       Vishys-Computer.local
Date/Time:  2003-12-18 13:24:17 +1100
OS Version: 10.3.1 (Build 7C107)

Command:    mutt (/sw/bin/mutt)
PID:        4728
Thread:     0

Exception:  EXC_BAD_ACCESS (0x0001)
Codes:      KERN_PROTECTION_FAILURE (0x0002) at 0x00000008

Thread 0 Crashed:
 #0   0x0003b0bc in msg_search (pattern.c:150)
 #1   0x0003ccf0 in mutt_pattern_exec (pattern.c:1005)
 #2   0x00017ce0 in mutt_set_header_color (curs_main.c:1999)
 #3   0x00012310 in index_color (curs_main.c:176)
 #4   0x0002c9ec in menu_redraw_index (menu.c:254)
 #5   0x00012ef8 in mutt_index_menu (curs_main.c:541)
 #6   0x00029fc8 in main (main.c:842)
 #7   0x0000270c in _start (crt.c:267)
 #8   0x0000258c in start (start + 48)

PPC Thread State:
  srr0: 0x0003b0bc srr1: 0x0000d030                vrsave: 0x00000000
    cr: 0x24848288  xer: 0x00000004   lr: 0x0003b098  ctr: 0x0003ccd0
    r0: 0x00000000   r1: 0xbfffe8a0   r2: 0x00000000   r3: 0x0110d710
    r4: 0x00000002   r5: 0xbfffead0   r6: 0x00000100   r7: 0x00000020
    r8: 0x00000008   r9: 0x00000070  r10: 0x0000018a  r11: 0x44848228
   r12: 0x900011c0  r13: 0x00000000  r14: 0x00000000  r15: 0x00089438
   r16: 0x00000000  r17: 0x00082ae8  r18: 0x00000000  r19: 0x00000001
   r20: 0x00000000  r21: 0x00000000  r22: 0x00082ae8  r23: 0x00087350
   r24: 0x0111f1c0  r25: 0x000873c0  r26: 0x00243780  r27: 0x00000000
   r28: 0x0110d710  r29: 0x0110d710  r30: 0x0111f1a0  r31: 0x0003b098

**********

Host Name:      dhcp-63-233.cse.ucsc.edu
Date/Time:      2004-01-02 16:34:09 -0800
OS Version:     10.3.2 (Build 7D24)
Report Version: 2

Command: mutt
Path:    /sw/bin/mutt
Version: ??? (???)
PID:     20815
Thread:  0

Exception:  EXC_BAD_ACCESS (0x0001)
Codes:      KERN_PROTECTION_FAILURE (0x0002) at 0x000000fc

Thread 0 Crashed:
0   mutt 	0x0003b4bc msg_search + 0x3c (pattern.c:150)
1   mutt 	0x0003d0f4 mutt_pattern_exec + 0x2c4 (pattern.c:1005)
2   mutt 	0x0001803c mutt_set_header_color + 0x4c (curs_main.c:1999)
3   mutt 	0x0001266c index_color + 0x54 (curs_main.c:176)
4   mutt 	0x0002cdbc menu_redraw_index + 0x1a0 (menu.c:254)
5   mutt 	0x00013254 mutt_index_menu + 0x418 (curs_main.c:541)
6   mutt 	0x0002a37c main + 0xb9c (main.c:842)
7   mutt 	0x00002954 _start + 0x188 (crt.c:267)
8   mutt 	0x000027c8 start + 0x30

PPC Thread State:
  srr0: 0x0003b4bc srr1: 0x0000d030                vrsave: 0x00000000
    cr: 0x24848288  xer: 0x00000004   lr: 0x0003b498  ctr: 0x0003d0d4
    r0: 0x00000000   r1: 0xbfffe8e0   r2: 0x00000000   r3: 0x0040c7d0
    r4: 0x0000003f   r5: 0xbfffeb10   r6: 0x00000100   r7: 0x00000020
    r8: 0x000000fc   r9: 0x00000070  r10: 0x00000001  r11: 0x44848228
   r12: 0x900011c0  r13: 0x00000000  r14: 0x00000000  r15: 0x000897ec
   r16: 0x00000000  r17: 0x00082e44  r18: 0x00000000  r19: 0x00000001
   r20: 0x00000000  r21: 0x00000000  r22: 0x00082e44  r23: 0x00087470
   r24: 0x0041ef60  r25: 0x000874e0  r26: 0x20b9a780  r27: 0x00082e44
   r28: 0x0040c7d0  r29: 0x0040c7d0  r30: 0x0041ef40  r31: 0x0003b498

Binary Images Description:
    0x1000 -    0x81fff mutt 	mutt
0x20010000 - 0x200e4fff libiconv.2.dylib 	/sw/lib/libiconv.2.dylib
0x20320000 - 0x203cbfff libcrypto.0.9.6.dylib 	/sw/lib/libcrypto.0.9.6.dylib
0x20540000 - 0x20544fff libintl.1.dylib 	/sw/lib/libintl.1.dylib
0x20b70000 - 0x20b99fff libncurses.5.dylib 	/sw/lib/libncurses.5.dylib
0x20da0000 - 0x20dcffff libssl.0.9.6.dylib 	/sw/lib/libssl.0.9.6.dylib
0x8fe00000 - 0x8fe4ffff dyld 	/usr/lib/dyld
0x90000000 - 0x90122fff libSystem.B.dylib 	/usr/lib/libSystem.B.dylib
0x939d0000 - 0x939d4fff libmathCommon.A.dylib 	/usr/lib/system/libmathCommon.A.dylib

**********

Host Name:      Vishys-Computer.local
Date/Time:      2004-01-04 23:33:23 -0800
OS Version:     10.3.2 (Build 7D24)
Report Version: 2

Command: mutt
Path:    /sw/bin/mutt
Version: ??? (???)
PID:     29641
Thread:  0

Exception:  EXC_BAD_ACCESS (0x0001)
Codes:      KERN_PROTECTION_FAILURE (0x0002) at 0x000001c0

Thread 0 Crashed:
0   mutt 	0x0003b4d4 msg_search + 0x3c (pattern.c:150)
1   mutt 	0x0003d10c mutt_pattern_exec + 0x2c4 (pattern.c:1005)
2   mutt 	0x0001805c mutt_set_header_color + 0x4c (curs_main.c:1999)
3   mutt 	0x0001268c index_color + 0x54 (curs_main.c:176)
4   mutt 	0x0002cdd4 menu_redraw_index + 0x1a0 (menu.c:254)
5   mutt 	0x00013274 mutt_index_menu + 0x418 (curs_main.c:541)
6   mutt 	0x0002a394 main + 0xb9c (main.c:842)
7   mutt 	0x00002974 _start + 0x188 (crt.c:267)
8   mutt 	0x000027e8 start + 0x30

PPC Thread State:
  srr0: 0x0003b4d4 srr1: 0x0000d030                vrsave: 0x00000000
    cr: 0x24848288  xer: 0x00000004   lr: 0x0003b4b0  ctr: 0x0003d0ec
    r0: 0x00000000   r1: 0xbfffe920   r2: 0x00000000   r3: 0x0110c7d0
    r4: 0x00000070   r5: 0xbfffeb50   r6: 0x00000100   r7: 0x00000020
    r8: 0x000001c0   r9: 0x00000070  r10: 0x00000541  r11: 0x44848228
   r12: 0x900011c0  r13: 0x00000000  r14: 0x00000000  r15: 0x00089804
   r16: 0x00000000  r17: 0x00082e64  r18: 0x00000000  r19: 0x00000001
   r20: 0x00000000  r21: 0x00000000  r22: 0x00082e64  r23: 0x00087470
   r24: 0x0111ef60  r25: 0x000874e0  r26: 0x00212780  r27: 0x00082e64
   r28: 0x0110c7d0  r29: 0x0110c7d0  r30: 0x0111ef40  r31: 0x0003b4b0

Binary Images Description:
    0x1000 -    0x81fff mutt 	mutt
  0x1e8000 -   0x211fff libncurses.5.dylib 	/sw/lib/libncurses.5.dylib
  0x22d000 -   0x25cfff libssl.0.9.6.dylib 	/sw/lib/libssl.0.9.6.dylib
  0x358000 -   0x403fff libcrypto.0.9.6.dylib 	/sw/lib/libcrypto.0.9.6.dylib
0x20010000 - 0x200e4fff libiconv.2.dylib 	/sw/lib/libiconv.2.dylib
0x20540000 - 0x20544fff libintl.1.dylib 	/sw/lib/libintl.1.dylib
0x8fe00000 - 0x8fe4ffff dyld 	/usr/lib/dyld
0x90000000 - 0x90122fff libSystem.B.dylib 	/usr/lib/libSystem.B.dylib
0x939d0000 - 0x939d4fff libmathCommon.A.dylib 	/usr/lib/system/libmathCommon.A.dylib

**********

Host Name:      Vishys-Computer.local
Date/Time:      2004-01-04 23:43:54 -0800
OS Version:     10.3.2 (Build 7D24)
Report Version: 2

Command: mutt
Path:    /sw/bin/mutt
Version: ??? (???)
PID:     29646
Thread:  0

Exception:  EXC_BAD_ACCESS (0x0001)
Codes:      KERN_PROTECTION_FAILURE (0x0002) at 0x000000dc

Thread 0 Crashed:
0   mutt 	0x0003b4d4 msg_search + 0x3c (pattern.c:150)
1   mutt 	0x0003d10c mutt_pattern_exec + 0x2c4 (pattern.c:1005)
2   mutt 	0x0001805c mutt_set_header_color + 0x4c (curs_main.c:1999)
3   mutt 	0x0001268c index_color + 0x54 (curs_main.c:176)
4   mutt 	0x0002cdd4 menu_redraw_index + 0x1a0 (menu.c:254)
5   mutt 	0x00013274 mutt_index_menu + 0x418 (curs_main.c:541)
6   mutt 	0x0002a394 main + 0xb9c (main.c:842)
7   mutt 	0x00002974 _start + 0x188 (crt.c:267)
8   mutt 	0x000027e8 start + 0x30

PPC Thread State:
  srr0: 0x0003b4d4 srr1: 0x0000d030                vrsave: 0x00000000
    cr: 0x24848288  xer: 0x00000004   lr: 0x0003b4b0  ctr: 0x0003d0ec
    r0: 0x00000000   r1: 0xbfffe920   r2: 0x00000000   r3: 0x0110c7d0
    r4: 0x00000037   r5: 0xbfffeb50   r6: 0x00000100   r7: 0x00000020
    r8: 0x000000dc   r9: 0x00000070  r10: 0x00000425  r11: 0x44848228
   r12: 0x900011c0  r13: 0x00000000  r14: 0x00000000  r15: 0x00089804
   r16: 0x00000000  r17: 0x00082e64  r18: 0x0000008a  r19: 0x00000001
   r20: 0x00000000  r21: 0x00000000  r22: 0x00082e64  r23: 0x00087470
   r24: 0x0111ef60  r25: 0x000874e0  r26: 0x00212780  r27: 0x00082e64
   r28: 0x0110c7d0  r29: 0x0110c7d0  r30: 0x0111ef40  r31: 0x0003b4b0

Binary Images Description:
    0x1000 -    0x81fff mutt 	mutt
  0x1e8000 -   0x211fff libncurses.5.dylib 	/sw/lib/libncurses.5.dylib
  0x22d000 -   0x25cfff libssl.0.9.6.dylib 	/sw/lib/libssl.0.9.6.dylib
  0x358000 -   0x403fff libcrypto.0.9.6.dylib 	/sw/lib/libcrypto.0.9.6.dylib
0x20010000 - 0x200e4fff libiconv.2.dylib 	/sw/lib/libiconv.2.dylib
0x20540000 - 0x20544fff libintl.1.dylib 	/sw/lib/libintl.1.dylib
0x8fe00000 - 0x8fe4ffff dyld 	/usr/lib/dyld
0x90000000 - 0x90122fff libSystem.B.dylib 	/usr/lib/libSystem.B.dylib
0x939d0000 - 0x939d4fff libmathCommon.A.dylib 	/usr/lib/system/libmathCommon.A.dylib

**********

Host Name:      Vishys-Computer.local
Date/Time:      2004-01-07 00:20:46 -0800
OS Version:     10.3.2 (Build 7D24)
Report Version: 2

Command: mutt
Path:    /sw/bin/mutt
Version: ??? (???)
PID:     27913
Thread:  0

Exception:  EXC_BAD_ACCESS (0x0001)
Codes:      KERN_PROTECTION_FAILURE (0x0002) at 0x00000004

Thread 0 Crashed:
0   mutt 	0x0002510c hdr_format_str + 0x858 (hdrline.c:484)
1   mutt 	0x00057ef4 mutt_FormatString + 0x390 (muttlib.c:1042)
2   mutt 	0x00025994 _mutt_make_string + 0x30 (hdrline.c:708)
3   mutt 	0x00036e84 mutt_pager + 0xa18 (pager.c:1709)
4   mutt 	0x0000ac9c mutt_display_message + 0x428 (commands.c:181)
5   mutt 	0x00014c44 mutt_index_menu + 0x1de8 (curs_main.c:1070)
6   mutt 	0x0002a394 main + 0xb9c (main.c:842)
7   mutt 	0x00002974 _start + 0x188 (crt.c:267)
8   mutt 	0x000027e8 start + 0x30

PPC Thread State:
  srr0: 0x0002510c srr1: 0x0200f030                vrsave: 0x00000000
    cr: 0x24482248  xer: 0x00000004   lr: 0x000248c0  ctr: 0x00025104
    r0: 0x00025104   r1: 0xbfffd6c0   r2: 0x00000000   r3: 0xbfffd930
    r4: 0x00000400   r5: 0x0000006e   r6: 0x0110ab5d   r7: 0xbfffd8b0
    r8: 0xbfffdd30   r9: 0x00000118  r10: 0xbfffdea0  r11: 0x00000046
   r12: 0x000248b4  r13: 0x00000000  r14: 0x00000000  r15: 0x00000042
   r16: 0xbfffdea0  r17: 0x00000000  r18: 0x0110ab5d  r19: 0x00000000
   r20: 0x00000004  r21: 0x00000400  r22: 0x0000006e  r23: 0xbfffd8b0
   r24: 0xbfffd930  r25: 0x00000000  r26: 0x0000006e  r27: 0x0112a4d0
   r28: 0x0110c7d0  r29: 0x00000001  r30: 0x00000000  r31: 0x000248c0

Binary Images Description:
    0x1000 -    0x81fff mutt 	mutt
  0x1e8000 -   0x211fff libncurses.5.dylib 	/sw/lib/libncurses.5.dylib
  0x22d000 -   0x25cfff libssl.0.9.6.dylib 	/sw/lib/libssl.0.9.6.dylib
  0x358000 -   0x403fff libcrypto.0.9.6.dylib 	/sw/lib/libcrypto.0.9.6.dylib
0x20010000 - 0x200e4fff libiconv.2.dylib 	/sw/lib/libiconv.2.dylib
0x20540000 - 0x20544fff libintl.1.dylib 	/sw/lib/libintl.1.dylib
0x8fe00000 - 0x8fe4ffff dyld 	/usr/lib/dyld
0x90000000 - 0x90122fff libSystem.B.dylib 	/usr/lib/libSystem.B.dylib
0x939d0000 - 0x939d4fff libmathCommon.A.dylib 	/usr/lib/system/libmathCommon.A.dylib

**********

Host Name:      dhcp-63-233.cse.ucsc.edu
Date/Time:      2004-01-11 22:08:17 -0800
OS Version:     10.3.2 (Build 7D24)
Report Version: 2

Command: mutt
Path:    /sw/bin/mutt
Version: ??? (???)
PID:     22876
Thread:  0

Exception:  EXC_BAD_ACCESS (0x0001)
Codes:      KERN_PROTECTION_FAILURE (0x0002) at 0x00000000

Thread 0 Crashed:
0   mutt 	0x0003b4d4 msg_search + 0x3c (pattern.c:150)
1   mutt 	0x0003d10c mutt_pattern_exec + 0x2c4 (pattern.c:1005)
2   mutt 	0x0001805c mutt_set_header_color + 0x4c (curs_main.c:1999)
3   mutt 	0x0001b2fc _mutt_set_flag + 0x44c (flags.c:219)
4   mutt 	0x0004b938 ci_send_message + 0xec0 (send.c:1605)
5   mutt 	0x00038c58 mutt_pager + 0x27ec (pager.c:2528)
6   mutt 	0x0000ac9c mutt_display_message + 0x428 (commands.c:181)
7   mutt 	0x00014c44 mutt_index_menu + 0x1de8 (curs_main.c:1070)
8   mutt 	0x0002a394 main + 0xb9c (main.c:842)
9   mutt 	0x00002974 _start + 0x188 (crt.c:267)
10  mutt 	0x000027e8 start + 0x30

PPC Thread State:
  srr0: 0x0003b4d4 srr1: 0x0000d030                vrsave: 0x00000000
    cr: 0x44482248  xer: 0x20000004   lr: 0x0003b4b0  ctr: 0x0003d0ec
    r0: 0x00000000   r1: 0xbfffd480   r2: 0x00000000   r3: 0x0110c7d0
    r4: 0x00000000   r5: 0xbfffd6b0   r6: 0x00000100   r7: 0x00000020
    r8: 0x00000000   r9: 0x00000070  r10: 0x00120010  r11: 0x00000010
   r12: 0x001f5204  r13: 0x00000000  r14: 0x0000008e  r15: 0x00000042
   r16: 0x00000000  r17: 0xffffffff  r18: 0x00000000  r19: 0x0110c7d0
   r20: 0x00000000  r21: 0x00000000  r22: 0x0112b280  r23: 0x00000000
   r24: 0x0111f0b0  r25: 0x00000000  r26: 0x00000000  r27: 0x00000000
   r28: 0x0110c7d0  r29: 0x0110c7d0  r30: 0x0111f090  r31: 0x0003b4b0

Binary Images Description:
    0x1000 -    0x81fff mutt 	mutt
  0x1e8000 -   0x211fff libncurses.5.dylib 	/sw/lib/libncurses.5.dylib
  0x22d000 -   0x25cfff libssl.0.9.6.dylib 	/sw/lib/libssl.0.9.6.dylib
  0x358000 -   0x403fff libcrypto.0.9.6.dylib 	/sw/lib/libcrypto.0.9.6.dylib
0x20010000 - 0x200e4fff libiconv.2.dylib 	/sw/lib/libiconv.2.dylib
0x20540000 - 0x20544fff libintl.1.dylib 	/sw/lib/libintl.1.dylib
0x8fe00000 - 0x8fe4ffff dyld 	/usr/lib/dyld
0x90000000 - 0x90122fff libSystem.B.dylib 	/usr/lib/libSystem.B.dylib
0x939d0000 - 0x939d4fff libmathCommon.A.dylib 	/usr/lib/system/libmathCommon.A.dylib

**********

Host Name:      dhcp-63-233.cse.ucsc.edu
Date/Time:      2004-01-11 22:26:27 -0800
OS Version:     10.3.2 (Build 7D24)
Report Version: 2

Command: mutt
Path:    /sw/bin/mutt
Version: ??? (???)
PID:     22988
Thread:  0

Exception:  EXC_BAD_ACCESS (0x0001)
Codes:      KERN_PROTECTION_FAILURE (0x0002) at 0x00000018

Thread 0 Crashed:
0   mutt 	0x0003b4d4 msg_search + 0x3c (pattern.c:150)
1   mutt 	0x0003d10c mutt_pattern_exec + 0x2c4 (pattern.c:1005)
2   mutt 	0x0001805c mutt_set_header_color + 0x4c (curs_main.c:1999)
3   mutt 	0x0001b2fc _mutt_set_flag + 0x44c (flags.c:219)
4   mutt 	0x0004b938 ci_send_message + 0xec0 (send.c:1605)
5   mutt 	0x00038c58 mutt_pager + 0x27ec (pager.c:2528)
6   mutt 	0x0000ac9c mutt_display_message + 0x428 (commands.c:181)
7   mutt 	0x00014c44 mutt_index_menu + 0x1de8 (curs_main.c:1070)
8   mutt 	0x0002a394 main + 0xb9c (main.c:842)
9   mutt 	0x00002974 _start + 0x188 (crt.c:267)
10  mutt 	0x000027e8 start + 0x30

PPC Thread State:
  srr0: 0x0003b4d4 srr1: 0x0000d030                vrsave: 0x00000000
    cr: 0x44482288  xer: 0x20000004   lr: 0x0003b4b0  ctr: 0x0003d0ec
    r0: 0x00000000   r1: 0xbfffd480   r2: 0x00000000   r3: 0x0110c7d0
    r4: 0x00000006   r5: 0xbfffd6b0   r6: 0x00000100   r7: 0x00000020
    r8: 0x00000018   r9: 0x00000070  r10: 0x089372c0  r11: 0x089372c0
   r12: 0x001f5204  r13: 0x00000000  r14: 0x0000008e  r15: 0x00000042
   r16: 0x00000000  r17: 0xffffffff  r18: 0x00000000  r19: 0x0110c7d0
   r20: 0x00000000  r21: 0x00000000  r22: 0x0113c6c0  r23: 0x00000000
   r24: 0x0111f0b0  r25: 0x00000000  r26: 0x00000000  r27: 0x00000000
   r28: 0x0110c7d0  r29: 0x0110c7d0  r30: 0x0111f090  r31: 0x0003b4b0

Binary Images Description:
    0x1000 -    0x81fff mutt 	mutt
  0x1e8000 -   0x211fff libncurses.5.dylib 	/sw/lib/libncurses.5.dylib
  0x22d000 -   0x25cfff libssl.0.9.6.dylib 	/sw/lib/libssl.0.9.6.dylib
  0x358000 -   0x403fff libcrypto.0.9.6.dylib 	/sw/lib/libcrypto.0.9.6.dylib
0x20010000 - 0x200e4fff libiconv.2.dylib 	/sw/lib/libiconv.2.dylib
0x20540000 - 0x20544fff libintl.1.dylib 	/sw/lib/libintl.1.dylib
0x8fe00000 - 0x8fe4ffff dyld 	/usr/lib/dyld
0x90000000 - 0x90122fff libSystem.B.dylib 	/usr/lib/libSystem.B.dylib
0x939d0000 - 0x939d4fff libmathCommon.A.dylib 	/usr/lib/system/libmathCommon.A.dylib

**********

Host Name:      dhcp-63-233.cse.ucsc.edu
Date/Time:      2004-01-12 01:47:07 -0800
OS Version:     10.3.2 (Build 7D24)
Report Version: 2

Command: mutt
Path:    /sw/bin/mutt
Version: ??? (???)
PID:     24994
Thread:  0

Exception:  EXC_BAD_ACCESS (0x0001)
Codes:      KERN_INVALID_ADDRESS (0x0001) at 0xf130482e

Thread 0 Crashed:
0   <<00000000>> 	0xffff8bb8 __memcpy + 0x418
1   mutt 	0x00020a30 convert_to_state + 0x104 (handler.c:115)
2   mutt 	0x00020e7c mutt_decode_quoted + 0x104 (handler.c:272)
3   mutt 	0x000238ec mutt_decode_attachment + 0xd0 (handler.c:1726)
4   mutt 	0x00023d90 mutt_body_handler + 0x428 (handler.c:1899)
5   mutt 	0x00022af4 alternative_handler + 0x398 (handler.c:1324)
6   mutt 	0x00023e04 mutt_body_handler + 0x49c (handler.c:1923)
7   mutt 	0x0001081c _mutt_copy_message + 0x2f4 (copy.c:535)
8   mutt 	0x00010a04 mutt_copy_message + 0x58 (copy.c:603)
9   mutt 	0x0000ab5c mutt_display_message + 0x2e8 (commands.c:142)
10  mutt 	0x00014c44 mutt_index_menu + 0x1de8 (curs_main.c:1070)
11  mutt 	0x0002a394 main + 0xb9c (main.c:842)
12  mutt 	0x00002974 _start + 0x188 (crt.c:267)
13  mutt 	0x000027e8 start + 0x30

PPC Thread State:
  srr0: 0xffff8bb8 srr1: 0x0200f030                vrsave: 0x00000000
    cr: 0x4884420f  xer: 0x20000002   lr: 0x00020a30  ctr: 0x900f60e0
    r0: 0x00c4c1b5   r1: 0xbfffd160   r2: 0xbfffd1a0   r3: 0xbfffdae0
    r4: 0xf130482f   r5: 0x31306d40   r6: 0x00000000   r7: 0x00000000
    r8: 0x40002520   r9: 0x0000000f  r10: 0x000007d0  r11: 0x00000003
   r12: 0xf130482f  r13: 0x00000000  r14: 0x00000000  r15: 0x00089804
   r16: 0x00000000  r17: 0x00082e64  r18: 0x0000008a  r19: 0x00000001
   r20: 0x00000000  r21: 0x00000000  r22: 0x00000011  r23: 0x00000000
   r24: 0x00000001  r25: 0xbfffdce4  r26: 0xbfffe4b0  r27: 0xbfffdae0
   r28: 0x000007d0  r29: 0x0112ac50  r30: 0xbfffd1a0  r31: 0x0002093c

Binary Images Description:
    0x1000 -    0x81fff mutt 	mutt
  0x1e8000 -   0x211fff libncurses.5.dylib 	/sw/lib/libncurses.5.dylib
  0x22d000 -   0x25cfff libssl.0.9.6.dylib 	/sw/lib/libssl.0.9.6.dylib
  0x358000 -   0x403fff libcrypto.0.9.6.dylib 	/sw/lib/libcrypto.0.9.6.dylib
0x20010000 - 0x200e4fff libiconv.2.dylib 	/sw/lib/libiconv.2.dylib
0x20540000 - 0x20544fff libintl.1.dylib 	/sw/lib/libintl.1.dylib
0x8fe00000 - 0x8fe4ffff dyld 	/usr/lib/dyld
0x90000000 - 0x90122fff libSystem.B.dylib 	/usr/lib/libSystem.B.dylib
0x939d0000 - 0x939d4fff libmathCommon.A.dylib 	/usr/lib/system/libmathCommon.A.dylib

**********

Host Name:      dhcp-63-233.cse.ucsc.edu
Date/Time:      2004-01-12 01:47:25 -0800
OS Version:     10.3.2 (Build 7D24)
Report Version: 2

Command: mutt
Path:    /sw/bin/mutt
Version: ??? (???)
PID:     27577
Thread:  0

Exception:  EXC_BAD_ACCESS (0x0001)
Codes:      KERN_INVALID_ADDRESS (0x0001) at 0xf130482e

Thread 0 Crashed:
0   <<00000000>> 	0xffff8bb8 __memcpy + 0x418
1   mutt 	0x00020a30 convert_to_state + 0x104 (handler.c:115)
2   mutt 	0x00020e7c mutt_decode_quoted + 0x104 (handler.c:272)
3   mutt 	0x000238ec mutt_decode_attachment + 0xd0 (handler.c:1726)
4   mutt 	0x00023d90 mutt_body_handler + 0x428 (handler.c:1899)
5   mutt 	0x00022af4 alternative_handler + 0x398 (handler.c:1324)
6   mutt 	0x00023e04 mutt_body_handler + 0x49c (handler.c:1923)
7   mutt 	0x0001081c _mutt_copy_message + 0x2f4 (copy.c:535)
8   mutt 	0x00010a04 mutt_copy_message + 0x58 (copy.c:603)
9   mutt 	0x0000ab5c mutt_display_message + 0x2e8 (commands.c:142)
10  mutt 	0x00014c44 mutt_index_menu + 0x1de8 (curs_main.c:1070)
11  mutt 	0x0002a394 main + 0xb9c (main.c:842)
12  mutt 	0x00002974 _start + 0x188 (crt.c:267)
13  mutt 	0x000027e8 start + 0x30

PPC Thread State:
  srr0: 0xffff8bb8 srr1: 0x0200f030                vrsave: 0x00000000
    cr: 0x4884420f  xer: 0x20000002   lr: 0x00020a30  ctr: 0x900f60e0
    r0: 0x00c4c1b5   r1: 0xbfffd160   r2: 0xbfffd1a0   r3: 0xbfffdae0
    r4: 0xf130482f   r5: 0x31306d40   r6: 0x00000000   r7: 0x00000000
    r8: 0x40002520   r9: 0x0000000f  r10: 0x000007d0  r11: 0x00000003
   r12: 0xf130482f  r13: 0x00000000  r14: 0x00000000  r15: 0x00089804
   r16: 0x00000000  r17: 0x00082e64  r18: 0x00000000  r19: 0x00000001
   r20: 0x00000000  r21: 0x00000000  r22: 0x00000011  r23: 0x00000000
   r24: 0x00000001  r25: 0xbfffdce4  r26: 0xbfffe4b0  r27: 0xbfffdae0
   r28: 0x000007d0  r29: 0x0112ab90  r30: 0xbfffd1a0  r31: 0x0002093c

Binary Images Description:
    0x1000 -    0x81fff mutt 	mutt
  0x1e8000 -   0x211fff libncurses.5.dylib 	/sw/lib/libncurses.5.dylib
  0x22d000 -   0x25cfff libssl.0.9.6.dylib 	/sw/lib/libssl.0.9.6.dylib
  0x358000 -   0x403fff libcrypto.0.9.6.dylib 	/sw/lib/libcrypto.0.9.6.dylib
0x20010000 - 0x200e4fff libiconv.2.dylib 	/sw/lib/libiconv.2.dylib
0x20540000 - 0x20544fff libintl.1.dylib 	/sw/lib/libintl.1.dylib
0x8fe00000 - 0x8fe4ffff dyld 	/usr/lib/dyld
0x90000000 - 0x90122fff libSystem.B.dylib 	/usr/lib/libSystem.B.dylib
0x939d0000 - 0x939d4fff libmathCommon.A.dylib 	/usr/lib/system/libmathCommon.A.dylib

**********

Host Name:      dhcp-63-233.cse.ucsc.edu
Date/Time:      2004-01-12 01:47:50 -0800
OS Version:     10.3.2 (Build 7D24)
Report Version: 2

Command: mutt
Path:    /sw/bin/mutt
Version: ??? (???)
PID:     27581
Thread:  0

Exception:  EXC_BAD_ACCESS (0x0001)
Codes:      KERN_INVALID_ADDRESS (0x0001) at 0xf130482e

Thread 0 Crashed:
0   <<00000000>> 	0xffff8bb8 __memcpy + 0x418
1   mutt 	0x00020a30 convert_to_state + 0x104 (handler.c:115)
2   mutt 	0x00020e7c mutt_decode_quoted + 0x104 (handler.c:272)
3   mutt 	0x000238ec mutt_decode_attachment + 0xd0 (handler.c:1726)
4   mutt 	0x00023d90 mutt_body_handler + 0x428 (handler.c:1899)
5   mutt 	0x00022af4 alternative_handler + 0x398 (handler.c:1324)
6   mutt 	0x00023e04 mutt_body_handler + 0x49c (handler.c:1923)
7   mutt 	0x0001081c _mutt_copy_message + 0x2f4 (copy.c:535)
8   mutt 	0x00010a04 mutt_copy_message + 0x58 (copy.c:603)
9   mutt 	0x0000ab5c mutt_display_message + 0x2e8 (commands.c:142)
10  mutt 	0x00014c44 mutt_index_menu + 0x1de8 (curs_main.c:1070)
11  mutt 	0x0002a394 main + 0xb9c (main.c:842)
12  mutt 	0x00002974 _start + 0x188 (crt.c:267)
13  mutt 	0x000027e8 start + 0x30

PPC Thread State:
  srr0: 0xffff8bb8 srr1: 0x0200f030                vrsave: 0x00000000
    cr: 0x4884420f  xer: 0x20000002   lr: 0x00020a30  ctr: 0x900f60e0
    r0: 0x00c4c1b5   r1: 0xbfffd160   r2: 0xbfffd1a0   r3: 0xbfffdae0
    r4: 0xf130482f   r5: 0x31306d40   r6: 0x00000000   r7: 0x00000000
    r8: 0x40002520   r9: 0x0000000f  r10: 0x000007d0  r11: 0x00000003
   r12: 0xf130482f  r13: 0x00000000  r14: 0x00000000  r15: 0x00089804
   r16: 0x00000000  r17: 0x00082e64  r18: 0x00000000  r19: 0x00000001
   r20: 0x00000000  r21: 0x00000000  r22: 0x00000011  r23: 0x00000000
   r24: 0x00000001  r25: 0xbfffdce4  r26: 0xbfffe4b0  r27: 0xbfffdae0
   r28: 0x000007d0  r29: 0x0112ab60  r30: 0xbfffd1a0  r31: 0x0002093c

Binary Images Description:
    0x1000 -    0x81fff mutt 	mutt
  0x1e8000 -   0x211fff libncurses.5.dylib 	/sw/lib/libncurses.5.dylib
  0x22d000 -   0x25cfff libssl.0.9.6.dylib 	/sw/lib/libssl.0.9.6.dylib
  0x358000 -   0x403fff libcrypto.0.9.6.dylib 	/sw/lib/libcrypto.0.9.6.dylib
0x20010000 - 0x200e4fff libiconv.2.dylib 	/sw/lib/libiconv.2.dylib
0x20540000 - 0x20544fff libintl.1.dylib 	/sw/lib/libintl.1.dylib
0x8fe00000 - 0x8fe4ffff dyld 	/usr/lib/dyld
0x90000000 - 0x90122fff libSystem.B.dylib 	/usr/lib/libSystem.B.dylib
0x939d0000 - 0x939d4fff libmathCommon.A.dylib 	/usr/lib/system/libmathCommon.A.dylib

-- Build environment information

(Note: This is the build environment installed on the system
muttbug is run on.  Information may or may not match the environment
used to build mutt.)

- gcc version information
gcc
Reading specs from /usr/libexec/gcc/darwin/ppc/3.3/specs
Thread model: posix
gcc version 3.3 20030304 (Apple Computer, Inc. build 1495)

- CFLAGS
-Wall -g -O2

-- Mutt Version Information

Mutt 1.4i (2002-05-29)
Copyright (C) 1996-2001 Michael R. Elkins and others.
Mutt comes with ABSOLUTELY NO WARRANTY; for details type `mutt -vv'.
Mutt is free software, and you are welcome to redistribute it
under certain conditions; type `mutt -vv' for details.

System: Darwin 7.2.0 (Power Macintosh) [using ncurses 5.2]
Compile options:
-DOMAIN
-DEBUG
-HOMESPOOL  +USE_SETGID  +USE_DOTLOCK  +DL_STANDALONE  
+USE_FCNTL  -USE_FLOCK
+USE_POP  +USE_IMAP  -USE_GSS  +USE_SSL  -USE_SASL  
-HAVE_REGCOMP  +USE_GNU_REGEX  
+HAVE_COLOR  +HAVE_START_COLOR  +HAVE_TYPEAHEAD  +HAVE_BKGDSET  
+HAVE_CURS_SET  +HAVE_META  +HAVE_RESIZETERM  
+HAVE_PGP  -BUFFY_SIZE -EXACT_ADDRESS  -SUN_ATTACHMENT  
+ENABLE_NLS  +LOCALES_HACK  -HAVE_WC_FUNCS  +HAVE_LANGINFO_CODESET  +HAVE_LANGINFO_YESEXPR  
+HAVE_ICONV  -ICONV_NONTRANS  +HAVE_GETSID  +HAVE_GETADDRINFO  
-ISPELL
SENDMAIL="/usr/sbin/sendmail"
MAILPATH="/var/mail"
PKGDATADIR="/sw/share/mutt"
SYSCONFDIR="/sw/etc"
EXECSHELL="/bin/sh"
-MIXMASTER
To contact the developers, please mail to <mutt-dev@mutt.org>.
To report a bug, please use the flea(1) utility.


--- Begin /sw/etc/Muttrc
ignore "from " received content- mime-version status x-status message-id
ignore sender references return-path lines
macro index \eb '/~b ' 'search in message bodies'
macro index \cb |urlview\n 'call urlview to extract URLs out of a message'
macro pager \cb |urlview\n 'call urlview to extract URLs out of a message'
macro generic <f1> "!less /sw/share/doc/mutt-ssl/manual.txt\n" "Show Mutt documentation"
macro index   <f1> "!less /sw/share/doc/mutt-ssl/manual.txt\n" "Show Mutt documentation"
macro pager   <f1> "!less /sw/share/doc/mutt-ssl/manual.txt\n" "Show Mutt documentation"
--- End /sw/etc/Muttrc


Received: (at submit) by bugs.guug.de; 12 Jan 2004 10:13:22 +0000
From vishy@dhcp-63-233.cse.ucsc.edu Mon Jan 12 11:13:17 2004
Received: from dhcp-63-233.cse.ucsc.edu ([128.114.63.233])
	by trithemius.gnupg.org with esmtp (Exim 3.35 #1 (Debian))
	id 1Afz4J-0004L7-00
	for <submit@bugs.guug.de>; Mon, 12 Jan 2004 11:13:11 +0100
Received: by dhcp-63-233.cse.ucsc.edu (Postfix, from userid 502)
	id 4B41C138ACF; Mon, 12 Jan 2004 02:15:43 -0800 (PST)
Date: Mon, 12 Jan 2004 02:15:43 -0800
From: S V N Vishwanathan <vishy@axiom.anu.edu.au>
To: submit@bugs.guug.de
Subject: Mutt segfaults, bug in pattern.c
Message-ID: <20040112101541.GA27784@dhcp-63-233.cse.ucsc.edu>
Mime-Version: 1.0
Content-Type: text/plain; charset=us-ascii
Content-Disposition: inline
User-Agent: Mutt/1.4i
X-Spam-Status: No, hits=-7.5 required=4.0
	tests=BAYES_10,USER_AGENT_MUTT
	autolearn=ham version=2.55
X-Spam-Level: 
X-Spam-Checker-Version: SpamAssassin 2.55 (1.174.2.19-2003-05-19-exp)

Package: mutt
Version: 1.4i
Severity: normal

-- Please type your report below this line
Accessing a IMAPS folder using SSL. Opening a spam mail (probably .html) segfaults mutt. Mutt installed on Mac osX 10.3 by compiling from the fink archive (current as of 6the Jan 2004). Relevant entry in .mailcap is:

text/html       ; w3m -dump -cols 72 %s ; nametemplate=%s.html; copiousoutput
text/htm        ; w3m -dump -cols 72 %s ; nametemplate=%s.html; copiousoutput
message/htm     ; w3m -dump -cols 72 %s ; nametemplate=%s.html; copiousoutput

From the crash dump the offending line seems to be:

HEADER *h = ctx->hdrs[msgno];

in pattern.c

Relevant crash dump from Panther is:


**********

Host:       Vishys-Computer.local
Date/Time:  2003-12-10 04:20:08 +1100
OS Version: 10.3.1 (Build 7C107)

Command:    mutt (/sw/bin/mutt)
PID:        919
Thread:     0

Exception:  EXC_BAD_ACCESS (0x0001)
Codes:      KERN_PROTECTION_FAILURE (0x0002) at 0x0000002c

Thread 0 Crashed:
 #0   0x0003b0bc in msg_search (pattern.c:150)
 #1   0x0003ccf0 in mutt_pattern_exec (pattern.c:1005)
 #2   0x00017ce0 in mutt_set_header_color (curs_main.c:1999)
 #3   0x00012310 in index_color (curs_main.c:176)
 #4   0x0002c9ec in menu_redraw_index (menu.c:254)
 #5   0x00012ef8 in mutt_index_menu (curs_main.c:541)
 #6   0x00029fc8 in main (main.c:842)
 #7   0x0000270c in _start (crt.c:267)
 #8   0x0000258c in start (start + 48)

PPC Thread State:
  srr0: 0x0003b0bc srr1: 0x0000d030                vrsave: 0x00000000
    cr: 0x24848288  xer: 0x00000004   lr: 0x0003b098  ctr: 0x0003ccd0
    r0: 0x00000000   r1: 0xbfffe8a0   r2: 0x00000000   r3: 0x0110d710
    r4: 0x0000000b   r5: 0xbfffead0   r6: 0x00000100   r7: 0x00000020
    r8: 0x0000002c   r9: 0x00000070  r10: 0x0000018a  r11: 0x44848228
   r12: 0x900011c0  r13: 0x00000000  r14: 0x00000000  r15: 0x00089438
   r16: 0x00000000  r17: 0x00082ae8  r18: 0x00000000  r19: 0x00000001
   r20: 0x00000000  r21: 0x00000000  r22: 0x00082ae8  r23: 0x00087350
   r24: 0x0111f1c0  r25: 0x000873c0  r26: 0x00243780  r27: 0x00000000
   r28: 0x0110d710  r29: 0x0110d710  r30: 0x0111f1a0  r31: 0x0003b098

**********

Host:       Vishys-Computer.local
Date/Time:  2003-12-11 04:25:59 +1100
OS Version: 10.3.1 (Build 7C107)

Command:    mutt (/sw/bin/mutt)
PID:        1309
Thread:     0

Exception:  EXC_BAD_ACCESS (0x0001)
Codes:      KERN_PROTECTION_FAILURE (0x0002) at 0x00000020

Thread 0 Crashed:
 #0   0x0003b0bc in msg_search (pattern.c:150)
 #1   0x0003ccf0 in mutt_pattern_exec (pattern.c:1005)
 #2   0x00017ce0 in mutt_set_header_color (curs_main.c:1999)
 #3   0x00012310 in index_color (curs_main.c:176)
 #4   0x0002c9ec in menu_redraw_index (menu.c:254)
 #5   0x00012ef8 in mutt_index_menu (curs_main.c:541)
 #6   0x00029fc8 in main (main.c:842)
 #7   0x0000270c in _start (crt.c:267)
 #8   0x0000258c in start (start + 48)

PPC Thread State:
  srr0: 0x0003b0bc srr1: 0x0000d030                vrsave: 0x00000000
    cr: 0x24848288  xer: 0x00000004   lr: 0x0003b098  ctr: 0x0003ccd0
    r0: 0x00000000   r1: 0xbfffe8a0   r2: 0x00000000   r3: 0x0110d710
    r4: 0x00000008   r5: 0xbfffead0   r6: 0x00000100   r7: 0x00000020
    r8: 0x00000020   r9: 0x00000070  r10: 0x0000018a  r11: 0x44848228
   r12: 0x900011c0  r13: 0x00000000  r14: 0x00000000  r15: 0x00089438
   r16: 0x00000000  r17: 0x00082ae8  r18: 0x00000000  r19: 0x00000001
   r20: 0x00000000  r21: 0x00000000  r22: 0x00082ae8  r23: 0x00087350
   r24: 0x0111f1c0  r25: 0x000873c0  r26: 0x00243780  r27: 0x00000000
   r28: 0x0110d710  r29: 0x0110d710  r30: 0x0111f1a0  r31: 0x0003b098

**********

Host:       Vishys-Computer.local
Date/Time:  2003-12-18 13:24:17 +1100
OS Version: 10.3.1 (Build 7C107)

Command:    mutt (/sw/bin/mutt)
PID:        4728
Thread:     0

Exception:  EXC_BAD_ACCESS (0x0001)
Codes:      KERN_PROTECTION_FAILURE (0x0002) at 0x00000008

Thread 0 Crashed:
 #0   0x0003b0bc in msg_search (pattern.c:150)
 #1   0x0003ccf0 in mutt_pattern_exec (pattern.c:1005)
 #2   0x00017ce0 in mutt_set_header_color (curs_main.c:1999)
 #3   0x00012310 in index_color (curs_main.c:176)
 #4   0x0002c9ec in menu_redraw_index (menu.c:254)
 #5   0x00012ef8 in mutt_index_menu (curs_main.c:541)
 #6   0x00029fc8 in main (main.c:842)
 #7   0x0000270c in _start (crt.c:267)
 #8   0x0000258c in start (start + 48)

PPC Thread State:
  srr0: 0x0003b0bc srr1: 0x0000d030                vrsave: 0x00000000
    cr: 0x24848288  xer: 0x00000004   lr: 0x0003b098  ctr: 0x0003ccd0
    r0: 0x00000000   r1: 0xbfffe8a0   r2: 0x00000000   r3: 0x0110d710
    r4: 0x00000002   r5: 0xbfffead0   r6: 0x00000100   r7: 0x00000020
    r8: 0x00000008   r9: 0x00000070  r10: 0x0000018a  r11: 0x44848228
   r12: 0x900011c0  r13: 0x00000000  r14: 0x00000000  r15: 0x00089438
   r16: 0x00000000  r17: 0x00082ae8  r18: 0x00000000  r19: 0x00000001
   r20: 0x00000000  r21: 0x00000000  r22: 0x00082ae8  r23: 0x00087350
   r24: 0x0111f1c0  r25: 0x000873c0  r26: 0x00243780  r27: 0x00000000
   r28: 0x0110d710  r29: 0x0110d710  r30: 0x0111f1a0  r31: 0x0003b098

**********

Host Name:      dhcp-63-233.cse.ucsc.edu
Date/Time:      2004-01-02 16:34:09 -0800
OS Version:     10.3.2 (Build 7D24)
Report Version: 2

Command: mutt
Path:    /sw/bin/mutt
Version: ??? (???)
PID:     20815
Thread:  0

Exception:  EXC_BAD_ACCESS (0x0001)
Codes:      KERN_PROTECTION_FAILURE (0x0002) at 0x000000fc

Thread 0 Crashed:
0   mutt 	0x0003b4bc msg_search + 0x3c (pattern.c:150)
1   mutt 	0x0003d0f4 mutt_pattern_exec + 0x2c4 (pattern.c:1005)
2   mutt 	0x0001803c mutt_set_header_color + 0x4c (curs_main.c:1999)
3   mutt 	0x0001266c index_color + 0x54 (curs_main.c:176)
4   mutt 	0x0002cdbc menu_redraw_index + 0x1a0 (menu.c:254)
5   mutt 	0x00013254 mutt_index_menu + 0x418 (curs_main.c:541)
6   mutt 	0x0002a37c main + 0xb9c (main.c:842)
7   mutt 	0x00002954 _start + 0x188 (crt.c:267)
8   mutt 	0x000027c8 start + 0x30

PPC Thread State:
  srr0: 0x0003b4bc srr1: 0x0000d030                vrsave: 0x00000000
    cr: 0x24848288  xer: 0x00000004   lr: 0x0003b498  ctr: 0x0003d0d4
    r0: 0x00000000   r1: 0xbfffe8e0   r2: 0x00000000   r3: 0x0040c7d0
    r4: 0x0000003f   r5: 0xbfffeb10   r6: 0x00000100   r7: 0x00000020
    r8: 0x000000fc   r9: 0x00000070  r10: 0x00000001  r11: 0x44848228
   r12: 0x900011c0  r13: 0x00000000  r14: 0x00000000  r15: 0x000897ec
   r16: 0x00000000  r17: 0x00082e44  r18: 0x00000000  r19: 0x00000001
   r20: 0x00000000  r21: 0x00000000  r22: 0x00082e44  r23: 0x00087470
   r24: 0x0041ef60  r25: 0x000874e0  r26: 0x20b9a780  r27: 0x00082e44
   r28: 0x0040c7d0  r29: 0x0040c7d0  r30: 0x0041ef40  r31: 0x0003b498

Binary Images Description:
    0x1000 -    0x81fff mutt 	mutt
0x20010000 - 0x200e4fff libiconv.2.dylib 	/sw/lib/libiconv.2.dylib
0x20320000 - 0x203cbfff libcrypto.0.9.6.dylib 	/sw/lib/libcrypto.0.9.6.dylib
0x20540000 - 0x20544fff libintl.1.dylib 	/sw/lib/libintl.1.dylib
0x20b70000 - 0x20b99fff libncurses.5.dylib 	/sw/lib/libncurses.5.dylib
0x20da0000 - 0x20dcffff libssl.0.9.6.dylib 	/sw/lib/libssl.0.9.6.dylib
0x8fe00000 - 0x8fe4ffff dyld 	/usr/lib/dyld
0x90000000 - 0x90122fff libSystem.B.dylib 	/usr/lib/libSystem.B.dylib
0x939d0000 - 0x939d4fff libmathCommon.A.dylib 	/usr/lib/system/libmathCommon.A.dylib

**********

Host Name:      Vishys-Computer.local
Date/Time:      2004-01-04 23:33:23 -0800
OS Version:     10.3.2 (Build 7D24)
Report Version: 2

Command: mutt
Path:    /sw/bin/mutt
Version: ??? (???)
PID:     29641
Thread:  0

Exception:  EXC_BAD_ACCESS (0x0001)
Codes:      KERN_PROTECTION_FAILURE (0x0002) at 0x000001c0

Thread 0 Crashed:
0   mutt 	0x0003b4d4 msg_search + 0x3c (pattern.c:150)
1   mutt 	0x0003d10c mutt_pattern_exec + 0x2c4 (pattern.c:1005)
2   mutt 	0x0001805c mutt_set_header_color + 0x4c (curs_main.c:1999)
3   mutt 	0x0001268c index_color + 0x54 (curs_main.c:176)
4   mutt 	0x0002cdd4 menu_redraw_index + 0x1a0 (menu.c:254)
5   mutt 	0x00013274 mutt_index_menu + 0x418 (curs_main.c:541)
6   mutt 	0x0002a394 main + 0xb9c (main.c:842)
7   mutt 	0x00002974 _start + 0x188 (crt.c:267)
8   mutt 	0x000027e8 start + 0x30

PPC Thread State:
  srr0: 0x0003b4d4 srr1: 0x0000d030                vrsave: 0x00000000
    cr: 0x24848288  xer: 0x00000004   lr: 0x0003b4b0  ctr: 0x0003d0ec
    r0: 0x00000000   r1: 0xbfffe920   r2: 0x00000000   r3: 0x0110c7d0
    r4: 0x00000070   r5: 0xbfffeb50   r6: 0x00000100   r7: 0x00000020
    r8: 0x000001c0   r9: 0x00000070  r10: 0x00000541  r11: 0x44848228
   r12: 0x900011c0  r13: 0x00000000  r14: 0x00000000  r15: 0x00089804
   r16: 0x00000000  r17: 0x00082e64  r18: 0x00000000  r19: 0x00000001
   r20: 0x00000000  r21: 0x00000000  r22: 0x00082e64  r23: 0x00087470
   r24: 0x0111ef60  r25: 0x000874e0  r26: 0x00212780  r27: 0x00082e64
   r28: 0x0110c7d0  r29: 0x0110c7d0  r30: 0x0111ef40  r31: 0x0003b4b0

Binary Images Description:
    0x1000 -    0x81fff mutt 	mutt
  0x1e8000 -   0x211fff libncurses.5.dylib 	/sw/lib/libncurses.5.dylib
  0x22d000 -   0x25cfff libssl.0.9.6.dylib 	/sw/lib/libssl.0.9.6.dylib
  0x358000 -   0x403fff libcrypto.0.9.6.dylib 	/sw/lib/libcrypto.0.9.6.dylib
0x20010000 - 0x200e4fff libiconv.2.dylib 	/sw/lib/libiconv.2.dylib
0x20540000 - 0x20544fff libintl.1.dylib 	/sw/lib/libintl.1.dylib
0x8fe00000 - 0x8fe4ffff dyld 	/usr/lib/dyld
0x90000000 - 0x90122fff libSystem.B.dylib 	/usr/lib/libSystem.B.dylib
0x939d0000 - 0x939d4fff libmathCommon.A.dylib 	/usr/lib/system/libmathCommon.A.dylib

**********

Host Name:      Vishys-Computer.local
Date/Time:      2004-01-04 23:43:54 -0800
OS Version:     10.3.2 (Build 7D24)
Report Version: 2

Command: mutt
Path:    /sw/bin/mutt
Version: ??? (???)
PID:     29646
Thread:  0

Exception:  EXC_BAD_ACCESS (0x0001)
Codes:      KERN_PROTECTION_FAILURE (0x0002) at 0x000000dc

Thread 0 Crashed:
0   mutt 	0x0003b4d4 msg_search + 0x3c (pattern.c:150)
1   mutt 	0x0003d10c mutt_pattern_exec + 0x2c4 (pattern.c:1005)
2   mutt 	0x0001805c mutt_set_header_color + 0x4c (curs_main.c:1999)
3   mutt 	0x0001268c index_color + 0x54 (curs_main.c:176)
4   mutt 	0x0002cdd4 menu_redraw_index + 0x1a0 (menu.c:254)
5   mutt 	0x00013274 mutt_index_menu + 0x418 (curs_main.c:541)
6   mutt 	0x0002a394 main + 0xb9c (main.c:842)
7   mutt 	0x00002974 _start + 0x188 (crt.c:267)
8   mutt 	0x000027e8 start + 0x30

PPC Thread State:
  srr0: 0x0003b4d4 srr1: 0x0000d030                vrsave: 0x00000000
    cr: 0x24848288  xer: 0x00000004   lr: 0x0003b4b0  ctr: 0x0003d0ec
    r0: 0x00000000   r1: 0xbfffe920   r2: 0x00000000   r3: 0x0110c7d0
    r4: 0x00000037   r5: 0xbfffeb50   r6: 0x00000100   r7: 0x00000020
    r8: 0x000000dc   r9: 0x00000070  r10: 0x00000425  r11: 0x44848228
   r12: 0x900011c0  r13: 0x00000000  r14: 0x00000000  r15: 0x00089804
   r16: 0x00000000  r17: 0x00082e64  r18: 0x0000008a  r19: 0x00000001
   r20: 0x00000000  r21: 0x00000000  r22: 0x00082e64  r23: 0x00087470
   r24: 0x0111ef60  r25: 0x000874e0  r26: 0x00212780  r27: 0x00082e64
   r28: 0x0110c7d0  r29: 0x0110c7d0  r30: 0x0111ef40  r31: 0x0003b4b0

Binary Images Description:
    0x1000 -    0x81fff mutt 	mutt
  0x1e8000 -   0x211fff libncurses.5.dylib 	/sw/lib/libncurses.5.dylib
  0x22d000 -   0x25cfff libssl.0.9.6.dylib 	/sw/lib/libssl.0.9.6.dylib
  0x358000 -   0x403fff libcrypto.0.9.6.dylib 	/sw/lib/libcrypto.0.9.6.dylib
0x20010000 - 0x200e4fff libiconv.2.dylib 	/sw/lib/libiconv.2.dylib
0x20540000 - 0x20544fff libintl.1.dylib 	/sw/lib/libintl.1.dylib
0x8fe00000 - 0x8fe4ffff dyld 	/usr/lib/dyld
0x90000000 - 0x90122fff libSystem.B.dylib 	/usr/lib/libSystem.B.dylib
0x939d0000 - 0x939d4fff libmathCommon.A.dylib 	/usr/lib/system/libmathCommon.A.dylib

**********

Host Name:      Vishys-Computer.local
Date/Time:      2004-01-07 00:20:46 -0800
OS Version:     10.3.2 (Build 7D24)
Report Version: 2

Command: mutt
Path:    /sw/bin/mutt
Version: ??? (???)
PID:     27913
Thread:  0

Exception:  EXC_BAD_ACCESS (0x0001)
Codes:      KERN_PROTECTION_FAILURE (0x0002) at 0x00000004

Thread 0 Crashed:
0   mutt 	0x0002510c hdr_format_str + 0x858 (hdrline.c:484)
1   mutt 	0x00057ef4 mutt_FormatString + 0x390 (muttlib.c:1042)
2   mutt 	0x00025994 _mutt_make_string + 0x30 (hdrline.c:708)
3   mutt 	0x00036e84 mutt_pager + 0xa18 (pager.c:1709)
4   mutt 	0x0000ac9c mutt_display_message + 0x428 (commands.c:181)
5   mutt 	0x00014c44 mutt_index_menu + 0x1de8 (curs_main.c:1070)
6   mutt 	0x0002a394 main + 0xb9c (main.c:842)
7   mutt 	0x00002974 _start + 0x188 (crt.c:267)
8   mutt 	0x000027e8 start + 0x30

PPC Thread State:
  srr0: 0x0002510c srr1: 0x0200f030                vrsave: 0x00000000
    cr: 0x24482248  xer: 0x00000004   lr: 0x000248c0  ctr: 0x00025104
    r0: 0x00025104   r1: 0xbfffd6c0   r2: 0x00000000   r3: 0xbfffd930
    r4: 0x00000400   r5: 0x0000006e   r6: 0x0110ab5d   r7: 0xbfffd8b0
    r8: 0xbfffdd30   r9: 0x00000118  r10: 0xbfffdea0  r11: 0x00000046
   r12: 0x000248b4  r13: 0x00000000  r14: 0x00000000  r15: 0x00000042
   r16: 0xbfffdea0  r17: 0x00000000  r18: 0x0110ab5d  r19: 0x00000000
   r20: 0x00000004  r21: 0x00000400  r22: 0x0000006e  r23: 0xbfffd8b0
   r24: 0xbfffd930  r25: 0x00000000  r26: 0x0000006e  r27: 0x0112a4d0
   r28: 0x0110c7d0  r29: 0x00000001  r30: 0x00000000  r31: 0x000248c0

Binary Images Description:
    0x1000 -    0x81fff mutt 	mutt
  0x1e8000 -   0x211fff libncurses.5.dylib 	/sw/lib/libncurses.5.dylib
  0x22d000 -   0x25cfff libssl.0.9.6.dylib 	/sw/lib/libssl.0.9.6.dylib
  0x358000 -   0x403fff libcrypto.0.9.6.dylib 	/sw/lib/libcrypto.0.9.6.dylib
0x20010000 - 0x200e4fff libiconv.2.dylib 	/sw/lib/libiconv.2.dylib
0x20540000 - 0x20544fff libintl.1.dylib 	/sw/lib/libintl.1.dylib
0x8fe00000 - 0x8fe4ffff dyld 	/usr/lib/dyld
0x90000000 - 0x90122fff libSystem.B.dylib 	/usr/lib/libSystem.B.dylib
0x939d0000 - 0x939d4fff libmathCommon.A.dylib 	/usr/lib/system/libmathCommon.A.dylib

**********

Host Name:      dhcp-63-233.cse.ucsc.edu
Date/Time:      2004-01-11 22:08:17 -0800
OS Version:     10.3.2 (Build 7D24)
Report Version: 2

Command: mutt
Path:    /sw/bin/mutt
Version: ??? (???)
PID:     22876
Thread:  0

Exception:  EXC_BAD_ACCESS (0x0001)
Codes:      KERN_PROTECTION_FAILURE (0x0002) at 0x00000000

Thread 0 Crashed:
0   mutt 	0x0003b4d4 msg_search + 0x3c (pattern.c:150)
1   mutt 	0x0003d10c mutt_pattern_exec + 0x2c4 (pattern.c:1005)
2   mutt 	0x0001805c mutt_set_header_color + 0x4c (curs_main.c:1999)
3   mutt 	0x0001b2fc _mutt_set_flag + 0x44c (flags.c:219)
4   mutt 	0x0004b938 ci_send_message + 0xec0 (send.c:1605)
5   mutt 	0x00038c58 mutt_pager + 0x27ec (pager.c:2528)
6   mutt 	0x0000ac9c mutt_display_message + 0x428 (commands.c:181)
7   mutt 	0x00014c44 mutt_index_menu + 0x1de8 (curs_main.c:1070)
8   mutt 	0x0002a394 main + 0xb9c (main.c:842)
9   mutt 	0x00002974 _start + 0x188 (crt.c:267)
10  mutt 	0x000027e8 start + 0x30

PPC Thread State:
  srr0: 0x0003b4d4 srr1: 0x0000d030                vrsave: 0x00000000
    cr: 0x44482248  xer: 0x20000004   lr: 0x0003b4b0  ctr: 0x0003d0ec
    r0: 0x00000000   r1: 0xbfffd480   r2: 0x00000000   r3: 0x0110c7d0
    r4: 0x00000000   r5: 0xbfffd6b0   r6: 0x00000100   r7: 0x00000020
    r8: 0x00000000   r9: 0x00000070  r10: 0x00120010  r11: 0x00000010
   r12: 0x001f5204  r13: 0x00000000  r14: 0x0000008e  r15: 0x00000042
   r16: 0x00000000  r17: 0xffffffff  r18: 0x00000000  r19: 0x0110c7d0
   r20: 0x00000000  r21: 0x00000000  r22: 0x0112b280  r23: 0x00000000
   r24: 0x0111f0b0  r25: 0x00000000  r26: 0x00000000  r27: 0x00000000
   r28: 0x0110c7d0  r29: 0x0110c7d0  r30: 0x0111f090  r31: 0x0003b4b0

Binary Images Description:
    0x1000 -    0x81fff mutt 	mutt
  0x1e8000 -   0x211fff libncurses.5.dylib 	/sw/lib/libncurses.5.dylib
  0x22d000 -   0x25cfff libssl.0.9.6.dylib 	/sw/lib/libssl.0.9.6.dylib
  0x358000 -   0x403fff libcrypto.0.9.6.dylib 	/sw/lib/libcrypto.0.9.6.dylib
0x20010000 - 0x200e4fff libiconv.2.dylib 	/sw/lib/libiconv.2.dylib
0x20540000 - 0x20544fff libintl.1.dylib 	/sw/lib/libintl.1.dylib
0x8fe00000 - 0x8fe4ffff dyld 	/usr/lib/dyld
0x90000000 - 0x90122fff libSystem.B.dylib 	/usr/lib/libSystem.B.dylib
0x939d0000 - 0x939d4fff libmathCommon.A.dylib 	/usr/lib/system/libmathCommon.A.dylib

**********

Host Name:      dhcp-63-233.cse.ucsc.edu
Date/Time:      2004-01-11 22:26:27 -0800
OS Version:     10.3.2 (Build 7D24)
Report Version: 2

Command: mutt
Path:    /sw/bin/mutt
Version: ??? (???)
PID:     22988
Thread:  0

Exception:  EXC_BAD_ACCESS (0x0001)
Codes:      KERN_PROTECTION_FAILURE (0x0002) at 0x00000018

Thread 0 Crashed:
0   mutt 	0x0003b4d4 msg_search + 0x3c (pattern.c:150)
1   mutt 	0x0003d10c mutt_pattern_exec + 0x2c4 (pattern.c:1005)
2   mutt 	0x0001805c mutt_set_header_color + 0x4c (curs_main.c:1999)
3   mutt 	0x0001b2fc _mutt_set_flag + 0x44c (flags.c:219)
4   mutt 	0x0004b938 ci_send_message + 0xec0 (send.c:1605)
5   mutt 	0x00038c58 mutt_pager + 0x27ec (pager.c:2528)
6   mutt 	0x0000ac9c mutt_display_message + 0x428 (commands.c:181)
7   mutt 	0x00014c44 mutt_index_menu + 0x1de8 (curs_main.c:1070)
8   mutt 	0x0002a394 main + 0xb9c (main.c:842)
9   mutt 	0x00002974 _start + 0x188 (crt.c:267)
10  mutt 	0x000027e8 start + 0x30

PPC Thread State:
  srr0: 0x0003b4d4 srr1: 0x0000d030                vrsave: 0x00000000
    cr: 0x44482288  xer: 0x20000004   lr: 0x0003b4b0  ctr: 0x0003d0ec
    r0: 0x00000000   r1: 0xbfffd480   r2: 0x00000000   r3: 0x0110c7d0
    r4: 0x00000006   r5: 0xbfffd6b0   r6: 0x00000100   r7: 0x00000020
    r8: 0x00000018   r9: 0x00000070  r10: 0x089372c0  r11: 0x089372c0
   r12: 0x001f5204  r13: 0x00000000  r14: 0x0000008e  r15: 0x00000042
   r16: 0x00000000  r17: 0xffffffff  r18: 0x00000000  r19: 0x0110c7d0
   r20: 0x00000000  r21: 0x00000000  r22: 0x0113c6c0  r23: 0x00000000
   r24: 0x0111f0b0  r25: 0x00000000  r26: 0x00000000  r27: 0x00000000
   r28: 0x0110c7d0  r29: 0x0110c7d0  r30: 0x0111f090  r31: 0x0003b4b0

Binary Images Description:
    0x1000 -    0x81fff mutt 	mutt
  0x1e8000 -   0x211fff libncurses.5.dylib 	/sw/lib/libncurses.5.dylib
  0x22d000 -   0x25cfff libssl.0.9.6.dylib 	/sw/lib/libssl.0.9.6.dylib
  0x358000 -   0x403fff libcrypto.0.9.6.dylib 	/sw/lib/libcrypto.0.9.6.dylib
0x20010000 - 0x200e4fff libiconv.2.dylib 	/sw/lib/libiconv.2.dylib
0x20540000 - 0x20544fff libintl.1.dylib 	/sw/lib/libintl.1.dylib
0x8fe00000 - 0x8fe4ffff dyld 	/usr/lib/dyld
0x90000000 - 0x90122fff libSystem.B.dylib 	/usr/lib/libSystem.B.dylib
0x939d0000 - 0x939d4fff libmathCommon.A.dylib 	/usr/lib/system/libmathCommon.A.dylib

**********

Host Name:      dhcp-63-233.cse.ucsc.edu
Date/Time:      2004-01-12 01:47:07 -0800
OS Version:     10.3.2 (Build 7D24)
Report Version: 2

Command: mutt
Path:    /sw/bin/mutt
Version: ??? (???)
PID:     24994
Thread:  0

Exception:  EXC_BAD_ACCESS (0x0001)
Codes:      KERN_INVALID_ADDRESS (0x0001) at 0xf130482e

Thread 0 Crashed:
0   <<00000000>> 	0xffff8bb8 __memcpy + 0x418
1   mutt 	0x00020a30 convert_to_state + 0x104 (handler.c:115)
2   mutt 	0x00020e7c mutt_decode_quoted + 0x104 (handler.c:272)
3   mutt 	0x000238ec mutt_decode_attachment + 0xd0 (handler.c:1726)
4   mutt 	0x00023d90 mutt_body_handler + 0x428 (handler.c:1899)
5   mutt 	0x00022af4 alternative_handler + 0x398 (handler.c:1324)
6   mutt 	0x00023e04 mutt_body_handler + 0x49c (handler.c:1923)
7   mutt 	0x0001081c _mutt_copy_message + 0x2f4 (copy.c:535)
8   mutt 	0x00010a04 mutt_copy_message + 0x58 (copy.c:603)
9   mutt 	0x0000ab5c mutt_display_message + 0x2e8 (commands.c:142)
10  mutt 	0x00014c44 mutt_index_menu + 0x1de8 (curs_main.c:1070)
11  mutt 	0x0002a394 main + 0xb9c (main.c:842)
12  mutt 	0x00002974 _start + 0x188 (crt.c:267)
13  mutt 	0x000027e8 start + 0x30

PPC Thread State:
  srr0: 0xffff8bb8 srr1: 0x0200f030                vrsave: 0x00000000
    cr: 0x4884420f  xer: 0x20000002   lr: 0x00020a30  ctr: 0x900f60e0
    r0: 0x00c4c1b5   r1: 0xbfffd160   r2: 0xbfffd1a0   r3: 0xbfffdae0
    r4: 0xf130482f   r5: 0x31306d40   r6: 0x00000000   r7: 0x00000000
    r8: 0x40002520   r9: 0x0000000f  r10: 0x000007d0  r11: 0x00000003
   r12: 0xf130482f  r13: 0x00000000  r14: 0x00000000  r15: 0x00089804
   r16: 0x00000000  r17: 0x00082e64  r18: 0x0000008a  r19: 0x00000001
   r20: 0x00000000  r21: 0x00000000  r22: 0x00000011  r23: 0x00000000
   r24: 0x00000001  r25: 0xbfffdce4  r26: 0xbfffe4b0  r27: 0xbfffdae0
   r28: 0x000007d0  r29: 0x0112ac50  r30: 0xbfffd1a0  r31: 0x0002093c

Binary Images Description:
    0x1000 -    0x81fff mutt 	mutt
  0x1e8000 -   0x211fff libncurses.5.dylib 	/sw/lib/libncurses.5.dylib
  0x22d000 -   0x25cfff libssl.0.9.6.dylib 	/sw/lib/libssl.0.9.6.dylib
  0x358000 -   0x403fff libcrypto.0.9.6.dylib 	/sw/lib/libcrypto.0.9.6.dylib
0x20010000 - 0x200e4fff libiconv.2.dylib 	/sw/lib/libiconv.2.dylib
0x20540000 - 0x20544fff libintl.1.dylib 	/sw/lib/libintl.1.dylib
0x8fe00000 - 0x8fe4ffff dyld 	/usr/lib/dyld
0x90000000 - 0x90122fff libSystem.B.dylib 	/usr/lib/libSystem.B.dylib
0x939d0000 - 0x939d4fff libmathCommon.A.dylib 	/usr/lib/system/libmathCommon.A.dylib

**********

Host Name:      dhcp-63-233.cse.ucsc.edu
Date/Time:      2004-01-12 01:47:25 -0800
OS Version:     10.3.2 (Build 7D24)
Report Version: 2

Command: mutt
Path:    /sw/bin/mutt
Version: ??? (???)
PID:     27577
Thread:  0

Exception:  EXC_BAD_ACCESS (0x0001)
Codes:      KERN_INVALID_ADDRESS (0x0001) at 0xf130482e

Thread 0 Crashed:
0   <<00000000>> 	0xffff8bb8 __memcpy + 0x418
1   mutt 	0x00020a30 convert_to_state + 0x104 (handler.c:115)
2   mutt 	0x00020e7c mutt_decode_quoted + 0x104 (handler.c:272)
3   mutt 	0x000238ec mutt_decode_attachment + 0xd0 (handler.c:1726)
4   mutt 	0x00023d90 mutt_body_handler + 0x428 (handler.c:1899)
5   mutt 	0x00022af4 alternative_handler + 0x398 (handler.c:1324)
6   mutt 	0x00023e04 mutt_body_handler + 0x49c (handler.c:1923)
7   mutt 	0x0001081c _mutt_copy_message + 0x2f4 (copy.c:535)
8   mutt 	0x00010a04 mutt_copy_message + 0x58 (copy.c:603)
9   mutt 	0x0000ab5c mutt_display_message + 0x2e8 (commands.c:142)
10  mutt 	0x00014c44 mutt_index_menu + 0x1de8 (curs_main.c:1070)
11  mutt 	0x0002a394 main + 0xb9c (main.c:842)
12  mutt 	0x00002974 _start + 0x188 (crt.c:267)
13  mutt 	0x000027e8 start + 0x30

PPC Thread State:
  srr0: 0xffff8bb8 srr1: 0x0200f030                vrsave: 0x00000000
    cr: 0x4884420f  xer: 0x20000002   lr: 0x00020a30  ctr: 0x900f60e0
    r0: 0x00c4c1b5   r1: 0xbfffd160   r2: 0xbfffd1a0   r3: 0xbfffdae0
    r4: 0xf130482f   r5: 0x31306d40   r6: 0x00000000   r7: 0x00000000
    r8: 0x40002520   r9: 0x0000000f  r10: 0x000007d0  r11: 0x00000003
   r12: 0xf130482f  r13: 0x00000000  r14: 0x00000000  r15: 0x00089804
   r16: 0x00000000  r17: 0x00082e64  r18: 0x00000000  r19: 0x00000001
   r20: 0x00000000  r21: 0x00000000  r22: 0x00000011  r23: 0x00000000
   r24: 0x00000001  r25: 0xbfffdce4  r26: 0xbfffe4b0  r27: 0xbfffdae0
   r28: 0x000007d0  r29: 0x0112ab90  r30: 0xbfffd1a0  r31: 0x0002093c

Binary Images Description:
    0x1000 -    0x81fff mutt 	mutt
  0x1e8000 -   0x211fff libncurses.5.dylib 	/sw/lib/libncurses.5.dylib
  0x22d000 -   0x25cfff libssl.0.9.6.dylib 	/sw/lib/libssl.0.9.6.dylib
  0x358000 -   0x403fff libcrypto.0.9.6.dylib 	/sw/lib/libcrypto.0.9.6.dylib
0x20010000 - 0x200e4fff libiconv.2.dylib 	/sw/lib/libiconv.2.dylib
0x20540000 - 0x20544fff libintl.1.dylib 	/sw/lib/libintl.1.dylib
0x8fe00000 - 0x8fe4ffff dyld 	/usr/lib/dyld
0x90000000 - 0x90122fff libSystem.B.dylib 	/usr/lib/libSystem.B.dylib
0x939d0000 - 0x939d4fff libmathCommon.A.dylib 	/usr/lib/system/libmathCommon.A.dylib

**********

Host Name:      dhcp-63-233.cse.ucsc.edu
Date/Time:      2004-01-12 01:47:50 -0800
OS Version:     10.3.2 (Build 7D24)
Report Version: 2

Command: mutt
Path:    /sw/bin/mutt
Version: ??? (???)
PID:     27581
Thread:  0

Exception:  EXC_BAD_ACCESS (0x0001)
Codes:      KERN_INVALID_ADDRESS (0x0001) at 0xf130482e

Thread 0 Crashed:
0   <<00000000>> 	0xffff8bb8 __memcpy + 0x418
1   mutt 	0x00020a30 convert_to_state + 0x104 (handler.c:115)
2   mutt 	0x00020e7c mutt_decode_quoted + 0x104 (handler.c:272)
3   mutt 	0x000238ec mutt_decode_attachment + 0xd0 (handler.c:1726)
4   mutt 	0x00023d90 mutt_body_handler + 0x428 (handler.c:1899)
5   mutt 	0x00022af4 alternative_handler + 0x398 (handler.c:1324)
6   mutt 	0x00023e04 mutt_body_handler + 0x49c (handler.c:1923)
7   mutt 	0x0001081c _mutt_copy_message + 0x2f4 (copy.c:535)
8   mutt 	0x00010a04 mutt_copy_message + 0x58 (copy.c:603)
9   mutt 	0x0000ab5c mutt_display_message + 0x2e8 (commands.c:142)
10  mutt 	0x00014c44 mutt_index_menu + 0x1de8 (curs_main.c:1070)
11  mutt 	0x0002a394 main + 0xb9c (main.c:842)
12  mutt 	0x00002974 _start + 0x188 (crt.c:267)
13  mutt 	0x000027e8 start + 0x30

PPC Thread State:
  srr0: 0xffff8bb8 srr1: 0x0200f030                vrsave: 0x00000000
    cr: 0x4884420f  xer: 0x20000002   lr: 0x00020a30  ctr: 0x900f60e0
    r0: 0x00c4c1b5   r1: 0xbfffd160   r2: 0xbfffd1a0   r3: 0xbfffdae0
    r4: 0xf130482f   r5: 0x31306d40   r6: 0x00000000   r7: 0x00000000
    r8: 0x40002520   r9: 0x0000000f  r10: 0x000007d0  r11: 0x00000003
   r12: 0xf130482f  r13: 0x00000000  r14: 0x00000000  r15: 0x00089804
   r16: 0x00000000  r17: 0x00082e64  r18: 0x00000000  r19: 0x00000001
   r20: 0x00000000  r21: 0x00000000  r22: 0x00000011  r23: 0x00000000
   r24: 0x00000001  r25: 0xbfffdce4  r26: 0xbfffe4b0  r27: 0xbfffdae0
   r28: 0x000007d0  r29: 0x0112ab60  r30: 0xbfffd1a0  r31: 0x0002093c

Binary Images Description:
    0x1000 -    0x81fff mutt 	mutt
  0x1e8000 -   0x211fff libncurses.5.dylib 	/sw/lib/libncurses.5.dylib
  0x22d000 -   0x25cfff libssl.0.9.6.dylib 	/sw/lib/libssl.0.9.6.dylib
  0x358000 -   0x403fff libcrypto.0.9.6.dylib 	/sw/lib/libcrypto.0.9.6.dylib
0x20010000 - 0x200e4fff libiconv.2.dylib 	/sw/lib/libiconv.2.dylib
0x20540000 - 0x20544fff libintl.1.dylib 	/sw/lib/libintl.1.dylib
0x8fe00000 - 0x8fe4ffff dyld 	/usr/lib/dyld
0x90000000 - 0x90122fff libSystem.B.dylib 	/usr/lib/libSystem.B.dylib
0x939d0000 - 0x939d4fff libmathCommon.A.dylib 	/usr/lib/system/libmathCommon.A.dylib

-- Build environment information

(Note: This is the build environment installed on the system
muttbug is run on.  Information may or may not match the environment
used to build mutt.)

- gcc version information
gcc
Reading specs from /usr/libexec/gcc/darwin/ppc/3.3/specs
Thread model: posix
gcc version 3.3 20030304 (Apple Computer, Inc. build 1495)

- CFLAGS
-Wall -g -O2

-- Mutt Version Information

Mutt 1.4i (2002-05-29)
Copyright (C) 1996-2001 Michael R. Elkins and others.
Mutt comes with ABSOLUTELY NO WARRANTY; for details type `mutt -vv'.
Mutt is free software, and you are welcome to redistribute it
under certain conditions; type `mutt -vv' for details.

System: Darwin 7.2.0 (Power Macintosh) [using ncurses 5.2]
Compile options:
-DOMAIN
-DEBUG
-HOMESPOOL  +USE_SETGID  +USE_DOTLOCK  +DL_STANDALONE  
+USE_FCNTL  -USE_FLOCK
+USE_POP  +USE_IMAP  -USE_GSS  +USE_SSL  -USE_SASL  
-HAVE_REGCOMP  +USE_GNU_REGEX  
+HAVE_COLOR  +HAVE_START_COLOR  +HAVE_TYPEAHEAD  +HAVE_BKGDSET  
+HAVE_CURS_SET  +HAVE_META  +HAVE_RESIZETERM  
+HAVE_PGP  -BUFFY_SIZE -EXACT_ADDRESS  -SUN_ATTACHMENT  
+ENABLE_NLS  +LOCALES_HACK  -HAVE_WC_FUNCS  +HAVE_LANGINFO_CODESET  +HAVE_LANGINFO_YESEXPR  
+HAVE_ICONV  -ICONV_NONTRANS  +HAVE_GETSID  +HAVE_GETADDRINFO  
-ISPELL
SENDMAIL="/usr/sbin/sendmail"
MAILPATH="/var/mail"
PKGDATADIR="/sw/share/mutt"
SYSCONFDIR="/sw/etc"
EXECSHELL="/bin/sh"
-MIXMASTER
To contact the developers, please mail to <mutt-dev@mutt.org>.
To report a bug, please use the flea(1) utility.


--- Begin /sw/etc/Muttrc
ignore "from " received content- mime-version status x-status message-id
ignore sender references return-path lines
macro index \eb '/~b ' 'search in message bodies'
macro index \cb |urlview\n 'call urlview to extract URLs out of a message'
macro pager \cb |urlview\n 'call urlview to extract URLs out of a message'
macro generic <f1> "!less /sw/share/doc/mutt-ssl/manual.txt\n" "Show Mutt documentation"
macro index   <f1> "!less /sw/share/doc/mutt-ssl/manual.txt\n" "Show Mutt documentation"
macro pager   <f1> "!less /sw/share/doc/mutt-ssl/manual.txt\n" "Show Mutt documentation"
--- End /sw/etc/Muttrc



-- 
I kissed my first girl and smoked my first cigarette on the same day.
I haven't had time for tobacco since.
		-- Arturo Toscanini


>How-To-Repeat:
>Fix:
}}}

--------------------------------------------------------------------------------
2005-08-12 23:30:00 UTC brendan
* Added comment:
{{{
Can you reproduce this with 1.5.10? We believe this version fixes the problem.
}}}

* status changed to assigned

--------------------------------------------------------------------------------
2005-09-15 23:07:09 UTC brendan
* Added comment:
{{{
Unreproducible; believed fixed; no response for 30 days.
}}}

* resolution changed to fixed
* status changed to closed
